<svg xmlns="http://www.w3.org/2000/svg" width="15.523" height="18.51" viewBox="0 0 15.523 18.51">
  <g id="arrow" transform="translate(-688.946 -2895.219)">
    <path id="Path_542" data-name="Path 542" d="M678.665,2904h12.808" transform="translate(10.28 0.491)" fill="none" stroke="#fff" stroke-width="2"/>
    <path id="Path_543" data-name="Path 543" d="M698.106,2891.7l8.548,8.548-8.548,8.548" transform="translate(-3.599 4.229)" fill="none" stroke="#fff" stroke-width="2"/>
  </g>
</svg>
