<svg xmlns="http://www.w3.org/2000/svg" xmlns:xlink="http://www.w3.org/1999/xlink" width="20" height="20" viewBox="0 0 20 20">
  <defs>
    <clipPath id="clip-email">
      <rect width="20" height="20"/>
    </clipPath>
  </defs>
  <g id="email" clip-path="url(#clip-email)">
    <path id="Path_26057" data-name="Path 26057" d="M23.715,5.716h-20V7.1a.83.83,0,0,1,.4.105l9.6,5.331L23.31,7.209a.83.83,0,0,1,.4-.105Zm0,3.175-9.6,5.331a.833.833,0,0,1-.809,0l-9.6-5.331v12.38h20Z" transform="translate(-3.716 -3.493)" fill="#5e2568" fill-rule="evenodd"/>
  </g>
</svg>
