<svg xmlns="http://www.w3.org/2000/svg" xmlns:xlink="http://www.w3.org/1999/xlink" width="251.047" height="244.693" viewBox="0 0 251.047 244.693">
  <defs>
    <filter id="logo-backgr" x="0" y="0" width="251.047" height="244.693" filterUnits="userSpaceOnUse">
      <feOffset dy="6" input="SourceAlpha"/>
      <feGaussianBlur stdDeviation="6" result="blur"/>
      <feFlood flood-opacity="0.161"/>
      <feComposite operator="in" in2="blur"/>
      <feComposite in="SourceGraphic"/>
    </filter>
  </defs>
  <g id="HU-logo-Alumni" transform="translate(-834.781 12)">
    <g transform="matrix(1, 0, 0, 1, 834.78, -12)" filter="url(#logo-backgr)">
      <g id="logo-backgr-2" data-name="logo-backgr" transform="translate(18 12)" fill="#d5c195">
        <path d="M 108.0024642944336 206.5177307128906 L 2.000018119812012 161.4137115478516 L 2.000018119812012 1.99999213218689 L 213.046875 1.99999213218689 L 213.046875 161.4183502197266 L 108.0024642944336 206.5177307128906 Z" stroke="none"/>
        <path d="M 3.999984741210938 4 L 3.999984741210938 160.0911712646484 L 107.9989242553711 204.3426971435547 L 211.046875 160.1004791259766 L 211.046875 4 L 3.999984741210938 4 M -1.52587890625e-05 0 L 215.046875 0 L 215.046875 162.7362213134766 L 108.005989074707 208.6927490234375 L -1.52587890625e-05 162.7362213134766 L -1.52587890625e-05 0 Z" stroke="none" fill="#a18955"/>
      </g>
    </g>
    <g id="logo" transform="translate(885.353 17.866)">
      <g id="Group_1471" data-name="Group 1471" transform="translate(29.819)">
        <path id="Path_1" data-name="Path 1" d="M90.34,44.659c0-.1,0-.21-.008-.3a45.167,45.167,0,0,0-90.32,0v.235c-.012.2-.012.39-.012.594v.66a2.218,2.218,0,0,1,.012.29A45.194,45.194,0,0,0,31.227,88.276a5.926,5.926,0,0,0,1.238-2.233l.012-.024v-.072c.093-.447.209-.915.323-1.48l.079-.28c.564-2.332,1.241-4.512,1.251-4.545.169-.587.312-1.041.434-1.346a8.182,8.182,0,0,1,.878-1.466,2.32,2.32,0,0,1,1.9-.915,3.152,3.152,0,0,1,1,.163l.622.258-.029-.663A4.681,4.681,0,0,0,38.871,75a30.255,30.255,0,0,1-7.552-2.67v-.143a30.258,30.258,0,0,1,4.658-55.817l-.043-.123a30.42,30.42,0,0,1,23.082,1.895v.137a30.272,30.272,0,0,1-4.644,55.832l.037.126A30.145,30.145,0,0,1,40.4,75.295c-1.677,3.484-1.981,9.267-1.981,12.914,0,.471-.032,1.09-.079,1.767a45.193,45.193,0,0,0,51.99-43.829c.008-.081.008-.152.008-.235,0-.2.014-.387.014-.594v-.133C90.354,45,90.34,44.834,90.34,44.659Z" transform="translate(0)" fill="#cda8cf"/>
        <path id="Path_2" data-name="Path 2" d="M51.962,7.93A43.97,43.97,0,0,0,38.789,93.848a6.884,6.884,0,0,0,.457-1.084l.012-.024v-.072c.093-.447.209-.915.323-1.48l.079-.28c.564-2.332,1.241-4.512,1.251-4.545.169-.587.312-1.041.434-1.346a8.183,8.183,0,0,1,.878-1.466,2.32,2.32,0,0,1,1.9-.914,3.151,3.151,0,0,1,1,.163l.622.258-.029-.663a3.951,3.951,0,0,0-.628-2.1l2.9.253-.014.123C45.589,83.8,45.195,90.753,45.195,94.92c0,.122,0,.273-.009.413a43.963,43.963,0,1,0,6.777-87.4Z" transform="translate(-6.78 -6.721)" fill="#5e2568"/>
        <path id="Path_3" data-name="Path 3" d="M93.27,124.19a30.958,30.958,0,1,1,30.965,30.961A30.966,30.966,0,0,1,93.27,124.19" transform="translate(-79.054 -79.011)" fill="#cda8cf" fill-rule="evenodd"/>
        <path id="Path_4" data-name="Path 4" d="M219.067,497.348c0-4.167.395-11.127,2.783-14.251l.014-.123-2.9-.253a3.95,3.95,0,0,1,.628,2.1l.029.663-.622-.258a3.154,3.154,0,0,0-1-.163,2.32,2.32,0,0,0-1.9.914,8.184,8.184,0,0,0-.878,1.466c-.122.3-.265.762-.434,1.346-.011.034-.687,2.213-1.251,4.545l-.079.28c-.114.561-.23,1.034-.323,1.48v.072Z" transform="translate(-180.645 -409.145)" fill="#fff" fill-rule="evenodd"/>
        <path id="Path_5" data-name="Path 5" d="M101.62,131.3a29.687,29.687,0,1,1,29.693,29.679A29.7,29.7,0,0,1,101.62,131.3" transform="translate(-86.131 -86.123)" fill="#fff" fill-rule="evenodd"/>
        <path id="Path_6" data-name="Path 6" d="M116.67,142.905a27.3,27.3,0,1,1,27.3,27.3,27.3,27.3,0,0,1-27.3-27.3" transform="translate(-98.888 -97.989)" fill="#d5c195" fill-rule="evenodd"/>
        <path id="Path_7" data-name="Path 7" d="M159.333,142.735a32,32,0,0,0-6.54,5.894l2.32.152s.762-.526.968-.017-.317.914-.317.914l-1.666.023.84.564-1.19,1.5.029,2.378c0,.447,1.11,1.079,1.11,1.079a8.862,8.862,0,0,0,2.262.61c.713-.012,3.154-.381,4.693-.4s1.439,1.649,1.439,1.649a4.109,4.109,0,0,0-2.017-.8,16.171,16.171,0,0,0-4.685.133,3.979,3.979,0,0,1-2.193-.352,2.581,2.581,0,0,0,.117,3.736c1.052,1.082,3.487.914,4.955.12a4.007,4.007,0,0,1,3.219.011,11.021,11.021,0,0,1-4.868,1.745c-2.308.469-3.978-.174-5.045-1.908a5.222,5.222,0,0,1,1.227-4.079,12.4,12.4,0,0,0-1.049-1.142c-.262-.192-.349-1.666-.479-2.055s-.858-1.791-.858-1.791a2.1,2.1,0,0,1,.073-2.641,48.128,48.128,0,0,1,6.87-5.764q-.61-2.058,1.555-3.634l3.257-2.1q2.591-7.712,9.994-7.485-7.952,1.786-8.383,7.845-6.665,3.213-5.639,5.813" transform="translate(-128.132 -109.395)" fill="#5e2568" fill-rule="evenodd"/>
        <path id="Path_8" data-name="Path 8" d="M222.527,217.309l-3.228-.6a7.682,7.682,0,0,1-1.239,2.791,4.744,4.744,0,0,1,4.1-1.346Z" transform="translate(-184.823 -183.679)" fill="#5e2568" fill-rule="evenodd"/>
        <path id="Path_9" data-name="Path 9" d="M235.426,222.824a22.62,22.62,0,0,0-5.761,19.459c.268-5.37,1.5-9.645,4.527-15.518.5-.968,6.929-9.877,6.929-9.877L237.063,221q.323-2.922,3.94-8.165c-.61-4.609-2.012-7.406-4.246-8.369,1.774,1.908,2.82,4.877,3.1,8.912a14.416,14.416,0,0,0-4.429,9.45" transform="translate(-194.395 -173.305)" fill="#5e2568" fill-rule="evenodd"/>
        <path id="Path_10" data-name="Path 10" d="M256.36,137.941l2.632-1.326q2.743-4.833,10.8-4.79-10.262-1.12-13.437,6.117" transform="translate(-217.287 -111.605)" fill="#5e2568" fill-rule="evenodd"/>
        <path id="Path_11" data-name="Path 11" d="M317.58,141.2q10.31,1.39,15.714,9.352-4.838-10.6-15.714-9.352" transform="translate(-269.175 -119.569)" fill="#5e2568" fill-rule="evenodd"/>
        <path id="Path_12" data-name="Path 12" d="M315.913,164.372q1.533-7.267-2.373-8c1.94,1.477,2.286,3.687,1.067,6.61Z" transform="translate(-265.751 -132.536)" fill="#5e2568" fill-rule="evenodd"/>
        <path id="Path_13" data-name="Path 13" d="M290.583,166.07l-.087-1.981-1.786.857c.035-2.984.841-4.42,2.439-4.278q2.236,1.16,1.162,4.685c-.476.87-1.047,1.111-1.73.725" transform="translate(-244.705 -136.17)" fill="#5e2568" fill-rule="evenodd"/>
        <path id="Path_14" data-name="Path 14" d="M354.482,167.61a11.8,11.8,0,0,1,1.006,2.353s2.561-.3,5.487,3.442c-1.829-4.623-5.182-5.536-6.495-5.792" transform="translate(-300.45 -142.063)" fill="#5e2568" fill-rule="evenodd"/>
        <path id="Path_15" data-name="Path 15" d="M366.855,192.19l-.915-2.62a6.876,6.876,0,0,1,4.326,3.934c-1.713-1.792-3.192-1.486-3.4-1.314" transform="translate(-310.164 -160.676)" fill="#5e2568" fill-rule="evenodd"/>
        <path id="Path_16" data-name="Path 16" d="M337,173.9a15.719,15.719,0,0,1,3.007,9.235c.14,5.841,1.088,8.011,2.526,10.619-1.35-4.307-.61-8.005-.567-11.053s-2.387-6.758-4.966-8.8" transform="translate(-285.636 -147.394)" fill="#5e2568" fill-rule="evenodd"/>
        <path id="Path_17" data-name="Path 17" d="M380.24,219a15.462,15.462,0,0,1,.334,7.453,12.738,12.738,0,0,0,1.318,9.016c1.131,2.18,2.91,3.53,3.7,1a7.933,7.933,0,0,0-.907-6.485,5.036,5.036,0,0,1-1.564,6.357c-.875-1.436-.7-3.048-.661-5.883s.7-7.484-2.216-11.457" transform="translate(-322.284 -185.62)" fill="#5e2568" fill-rule="evenodd"/>
        <path id="Path_18" data-name="Path 18" d="M336.007,311.335c.031-.515.058-1.155.031-1.923-4.249-4.845-2.612-13.212-2.612-13.212-1.774,4.96-.088,11.616,1.655,14.023a12.278,12.278,0,0,0,.927,1.114" transform="translate(-281.966 -251.054)" fill="#5e2568" fill-rule="evenodd"/>
        <path id="Path_19" data-name="Path 19" d="M373.471,232.1c-3.567-3.669-3.137-6.1-3.137-6.1-.914,4.789,1.346,6.53,2.928,8.577s3.477,4.268,3.126,7.49c-1.857,9.926-7.209,11.294-10.537,9.45a7.288,7.288,0,0,1-.221,1.767c2.23,1.421,5.4,1.727,9.145-2.821,5.664-6.882,2.256-14.714-1.308-18.366" transform="translate(-309.901 -191.553)" fill="#5e2568" fill-rule="evenodd"/>
        <path id="Path_20" data-name="Path 20" d="M365.144,321.32s-.776.66-.346,3.225.523,5.874-1.737,5.4c0,0,.914,2.352,2.134,1.389s1.264-2.966.648-4.74a13.135,13.135,0,0,1-.7-5.275" transform="translate(-307.722 -272.345)" fill="#5e2568" fill-rule="evenodd"/>
        <path id="Path_21" data-name="Path 21" d="M347.184,353.092s-.686.879-.637,4.3-.192,4.556-1.817,3.506c0,0,.34,2.815,1.564,2.241s1.852-3.28,1.524-4.995-1.117-3.272-.64-5.057" transform="translate(-292.187 -299.273)" fill="#5e2568" fill-rule="evenodd"/>
        <path id="Path_22" data-name="Path 22" d="M309.552,381.49a21.064,21.064,0,0,0-.494,3.978c-.034,2.064-1.039,4.268-2.782,4.7s-2.266-1.067-2.01-2.108c0,0-1.1,3.891,2.209,4.176,2.527.2,3.945-3.022,3.565-5.813a29.783,29.783,0,0,1-.488-4.932" transform="translate(-257.74 -323.344)" fill="#5e2568" fill-rule="evenodd"/>
        <path id="Path_23" data-name="Path 23" d="M264.718,309.966s1.578,11.954-3.858,16.984c-2.555,2.367-6.046,1.724-4.909-4.781,0,0-2.242,8.414,2.67,7.967s8.132-10.517,6.1-20.176" transform="translate(-216.507 -262.716)" fill="#5e2568" fill-rule="evenodd"/>
        <path id="Path_24" data-name="Path 24" d="M244.349,390.9s-2.852,4.852-.61,8.962a2.378,2.378,0,0,0,3.2.665c-1.718,1.849-3.734,1.413-4.7-.541-1.4-2.885.674-7.654,2.114-9.086" transform="translate(-204.927 -331.319)" fill="#5e2568" fill-rule="evenodd"/>
        <path id="Path_25" data-name="Path 25" d="M330.752,227.5s4.358,9.209.209,16.9a18.17,18.17,0,0,0-.552-14.347s.014-.268-.383.215c-.312.407-.828,1.265-1.241.476s1.561-4.044,1.966-3.239" transform="translate(-278.624 -192.721)" fill="#5e2568" fill-rule="evenodd"/>
        <path id="Path_26" data-name="Path 26" d="M410.651,207.14s3.993,3.288,4.665,13.356c0,0-.424-6.577-4.281-10.573-.073,2.164.418,4.086.736,4.373s.529-1.338.352-2.268c.852,1.916.922,3.422.291,3.681s-2.462-2.98-1.763-8.569" transform="translate(-347.927 -175.568)" fill="#5e2568" fill-rule="evenodd"/>
        <path id="Path_27" data-name="Path 27" d="M280.71,368.044a16.049,16.049,0,0,0,1.466-1.744c.1,3.353-.034,4.214-2.106,6.966a7.932,7.932,0,0,0,.64-5.222" transform="translate(-237.382 -310.469)" fill="#5e2568" fill-rule="evenodd"/>
        <path id="Path_28" data-name="Path 28" d="M255.755,331.706c.241-.5,2.388-1.506,3.39-.152.386.654-3.006,5.964-8.064,8.139a19.361,19.361,0,0,0,5.658-5.944c.834-1.477-1.5-1.039-.983-2.048" transform="translate(-212.811 -280.445)" fill="#5e2568" fill-rule="evenodd"/>
        <path id="Path_29" data-name="Path 29" d="M225.236,557.758c.665-.268.779.056-.219.437-6.362,2.451-13.544,2.277-19.945.927A94.1,94.1,0,0,1,191.09,555.2l.61-1.353s32.733,4.236,33.532,3.908" transform="translate(-161.964 -469.433)" fill="#deca95" fill-rule="evenodd"/>
        <path id="Path_30" data-name="Path 30" d="M206.221,479.222l.424-.982c.654.316,6.97,3.411,10.364,4.573,7.324,2.521,14,4.138,18.833,4.138a38.005,38.005,0,0,0,6.874-.575,25.964,25.964,0,0,0,5.268-1.542,13.577,13.577,0,0,0,3.638-3.314c.418-.53.762-.855.785-.559.469,4.318-4.6,7.237-11.719,8.162-7.231.939-14.154-2.355-20.881-3.873-8.8-2-13.587-6.025-13.587-6.025" transform="translate(-174.788 -405.347)" fill="#cda8cf" fill-rule="evenodd"/>
        <path id="Path_31" data-name="Path 31" d="M206.23,481.763l.506-.8c.658.3,6.888,3.224,10.281,4.389,7.324,2.523,14,4.14,18.833,4.14a37.058,37.058,0,0,0,6.874-.582,24.531,24.531,0,0,0,7.179-2.439c.334-.123-.076.337-.226.471-2.053,1.85-6.959,3.15-9.258,3.44-7.24.927-13.878-1.067-20.6-2.6-8.8-1.992-13.587-6.016-13.587-6.016" transform="translate(-174.797 -407.653)" fill="#deca95" fill-rule="evenodd"/>
        <path id="Path_32" data-name="Path 32" d="M233.3,494.757l.511.773s.207.239-1.631,1.745c-1.462,1.2-4.56,3.608-6.569,4.338-6.383,2.314-13.184,1.86-19.833.352A76.863,76.863,0,0,1,191.92,497.6l3.093-10.083a97.478,97.478,0,0,0,9.593,4.326c7.4,2.538,11.889,3.975,19.093,4.036a30.874,30.874,0,0,0,9.6-1.125" transform="translate(-162.668 -413.213)" fill="#cda8cf" fill-rule="evenodd"/>
        <path id="Path_33" data-name="Path 33" d="M210.805,503.844c7.5,2.576,12.125,4.056,19.494,4.1,6.653.064,8.933-.957,8.933-.957s-4.132,3.777-7.787,5.129c-4.768,1.773-12.561,1.646-19.052.095a96.935,96.935,0,0,1-12.674-3.858l2.591-8.316a75.038,75.038,0,0,0,8.5,3.81" transform="translate(-169.28 -423.825)" fill="#deca95" fill-rule="evenodd"/>
        <path id="Path_34" data-name="Path 34" d="M267.856,473.88s-4.268,2.3-4.149,15.908c.046,5.51,1.419,8.011,1.419,8.011l-6.752-4.315-6.674,4.344s.722-5.659.722-7.967.095-12.174,3.413-14.664a.44.44,0,0,1,.375-.123,26.693,26.693,0,0,0,11.646-1.187" transform="translate(-213.336 -401.652)" fill="#deca95" fill-rule="evenodd"/>
        <path id="Path_35" data-name="Path 35" d="M246.78,495.684l.1-1.326c.018-.152.709-5.659.709-7.911,0-4.626.479-12.706,3.641-15.152a1.1,1.1,0,0,1,.754-.293h.116l.213.027c.649.055,1.759.152,3.149.152a22.846,22.846,0,0,0,7.994-1.323l.538,1.187c-.029.018-4.3,2.1-4.233,14.981.052,6.324.794,6.02,1.067,7.241l.852,2.352-7.482-4.775Zm7.427-5.828,5.891,3.5c-.927-2.853-1.18-2.524-1.219-6.962-.061-8.295,1.484-12.529,2.8-14.607a26.507,26.507,0,0,1-6.216.7h0c-1.445,0-2.582-.1-3.263-.152l-.152-.018c-1.971,1.5-3.12,6.781-3.432,14.115-.111,2.675-.457,3.544-.782,7.456Z" transform="translate(-209.166 -398.245)" fill="#cda8cf"/>
        <path id="Path_36" data-name="Path 36" d="M270.057,499.342l-4.527,3,.026-.3a22.774,22.774,0,0,0,.326-4.268c0-7.214,1.142-12.3,3.2-14.327l.2.209c-2,1.968-3.114,6.982-3.114,14.114,0,1.506.1-.153-.3,4L270.057,499l4.391,2.9c-.747-2.05-1.084-1.9-1.067-4.2.088-6.15.776-11.165,2.37-14.491l.258.125c-1.577,3.285-2.378,8.246-2.324,14.366.012,1.815.61,2.9,1.405,5.391Z" transform="translate(-225.058 -409.56)" fill="#cda8cf"/>
        <path id="Path_37" data-name="Path 37" d="M172.609,488.405c.111-.5.221-1,.348-1.5a1.009,1.009,0,0,1,.07-.3c.573-2.373,1.259-4.557,1.259-4.557.16-.555.312-1.056.447-1.4a9.771,9.771,0,0,1,.931-1.565,3.048,3.048,0,0,1,3.414-.876c-.072-2.2-1.677-3.478-4.164-3.276s-3.353,3.013-3.4,4.341-1.57,2.085-2.411,2.693c-.867.6-1.9.692-2.449,1.3-.579.61.747,1.765,2.026,1.291l1.006-.384a8,8,0,0,1-1.177,3.314,2.529,2.529,0,0,1-2.669.681s-.23,3.625,3.137,3.521c2.1-.069,3.143-1.73,3.631-3.254V488.4" transform="translate(-140.561 -402.527)" fill="#deca95" fill-rule="evenodd"/>
        <path id="Path_38" data-name="Path 38" d="M166.46,489.771h0a3.224,3.224,0,0,1-2.439-.95,4.413,4.413,0,0,1-.977-3.036l.03-.559.541.172a2.59,2.59,0,0,0,.751.111,1.688,1.688,0,0,0,1.419-.64,6.409,6.409,0,0,0,.956-2.372l-.271.113a2.272,2.272,0,0,1-.783.152,2.1,2.1,0,0,1-1.885-1.076.949.949,0,0,1,.143-1.055,3.729,3.729,0,0,1,1.424-.831,5.548,5.548,0,0,0,1.12-.547,5.384,5.384,0,0,1,.457-.3c.774-.515,1.725-1.158,1.751-2.039.05-1.454,1.05-4.525,3.8-4.757.18-.011.373-.023.544-.023,2.457,0,4.033,1.422,4.1,3.727l.029.663-.622-.258a3.157,3.157,0,0,0-1-.163,2.321,2.321,0,0,0-1.9.914,8.151,8.151,0,0,0-.878,1.468c-.122.3-.265.762-.434,1.344-.011.033-.687,2.213-1.251,4.545l-.079.28c-.114.561-.23,1.034-.323,1.48v.072l-.012.024c-.707,2.231-2.141,3.5-4.038,3.559Zm-2.538-3.426a3.233,3.233,0,0,0,.738,1.884,2.32,2.32,0,0,0,1.8.672h.127c1.895-.061,2.8-1.6,3.225-2.9v-.041c.1-.457.207-.939.337-1.491a1.477,1.477,0,0,1,.085-.377c.572-2.335,1.254-4.516,1.259-4.539.177-.61.325-1.093.457-1.427l.015-.027a9.078,9.078,0,0,1,.983-1.645,3.2,3.2,0,0,1,2.591-1.239,3.769,3.769,0,0,1,.675.056,2.89,2.89,0,0,0-3.176-2.286c-.137,0-.3,0-.471.014-2.177.188-2.958,2.725-3,3.93-.026,1.324-1.247,2.134-2.134,2.727-.171.1-.3.2-.445.294a5.568,5.568,0,0,1-1.3.646,3.1,3.1,0,0,0-1.088.61c-.009.011-.026.034,0,.116a1.284,1.284,0,0,0,1.1.559,1.371,1.371,0,0,0,.471-.084l1.664-.651-.085.715a8.423,8.423,0,0,1-1.257,3.538,2.548,2.548,0,0,1-2.116.989A2.35,2.35,0,0,1,163.922,486.345Z" transform="translate(-138.187 -400.169)" fill="#cda8cf"/>
        <path id="Path_39" data-name="Path 39" d="M288.626,499.955l-.9-.322V496.89h.133a11.892,11.892,0,0,0,1.8,1.709,2.3,2.3,0,0,0,1.274.5,1.016,1.016,0,0,0,.726-.278.859.859,0,0,0,.279-.64,1.084,1.084,0,0,0-.191-.617,1.322,1.322,0,0,0-.594-.413v-.113a1.511,1.511,0,0,1,.968.434,1.2,1.2,0,0,1,.342.886,1.312,1.312,0,0,1-.357.936,1.15,1.15,0,0,1-.87.384,1.664,1.664,0,0,1-.69-.166,4.617,4.617,0,0,1-1.181-.82c-.62-.57-.983-.914-1.12-1.067v1.219a2.692,2.692,0,0,0,.032.515.871.871,0,0,0,.105.268.718.718,0,0,0,.247.2Z" transform="translate(-243.875 -421.155)" fill="#5e2568"/>
        <path id="Path_40" data-name="Path 40" d="M285.685,521.156a3.545,3.545,0,0,1,1.361.247,1.981,1.981,0,0,1,.849.643,1.145,1.145,0,0,1,.226.636,1.237,1.237,0,0,1-.549.96,2.932,2.932,0,0,1-1.837.521,3.712,3.712,0,0,1-1.372-.223,1.722,1.722,0,0,1-.808-.6,1.17,1.17,0,0,1-.265-.7,1.267,1.267,0,0,1,.779-1.093A3.223,3.223,0,0,1,285.685,521.156Zm-.09.674a4.3,4.3,0,0,0-1.559.238c-.348.133-.518.319-.518.584a.57.57,0,0,0,.171.378.989.989,0,0,0,.556.3,6.677,6.677,0,0,0,1.657.152,4.518,4.518,0,0,0,1.323-.165,1.182,1.182,0,0,0,.556-.322.506.506,0,0,0,.116-.335.548.548,0,0,0-.21-.419,1.763,1.763,0,0,0-.9-.332,7.423,7.423,0,0,0-1.2-.084Z" transform="translate(-240.112 -441.722)" fill="#5e2568"/>
        <path id="Path_41" data-name="Path 41" d="M286.344,547.29l.549,1.133v.108h-3.922a1.839,1.839,0,0,0-.479.035.234.234,0,0,0-.152.136,1.006,1.006,0,0,0-.05.418h-.13v-1.742h.128a1,1,0,0,0,.05.422.3.3,0,0,0,.128.13,1.784,1.784,0,0,0,.5.035h2.518a4.022,4.022,0,0,0,.651-.029.269.269,0,0,0,.152-.087.3.3,0,0,0,.053-.152.776.776,0,0,0-.116-.348Z" transform="translate(-239.154 -463.873)" fill="#5e2568"/>
        <path id="Path_42" data-name="Path 42" d="M278.491,567.291H278v-.622H276.77V566.1H278v-1.96h.44l3.07,2.148v.381h-3.016Zm0-1.186h2.286l-2.286-1.628Z" transform="translate(-234.586 -478.155)" fill="#5e2568"/>
        <path id="Path_43" data-name="Path 43" d="M38.522,86.033a3.611,3.611,0,0,1-.447.2l-.544-.68c-.076-.079-.171-.172-.293-.282l-1.536.762c-.527.3-.915.546-1.193.687l-.152.076c-.171.075-.582.3-1.244.668l-.152.107-.518.253-.511.3-.259.152a8.129,8.129,0,0,0-.785.492.848.848,0,0,0-.125.133.835.835,0,0,0,.032.12c.021.034.034.087.055.12a4.618,4.618,0,0,0,.218.541l.024.108a1.623,1.623,0,0,1,.093.268.881.881,0,0,1-.219.131.52.52,0,0,1-.215.076c-.05-.066-.127-.183-.209-.319s-.136-.247-.171-.3c-.213-.518-.395-.895-.518-1.135-.07-.105-.113-.215-.178-.329a2.83,2.83,0,0,0-.152-.3c-.067-.134-.259-.445-.588-.933a1.357,1.357,0,0,1-.169-.248,3.94,3.94,0,0,1-.194-.384.915.915,0,0,0,.175-.113c.078-.024.16-.066.27-.108l.753.979a.2.2,0,0,0,.242.027l.207-.134.105-.058.258-.136.209-.111.046-.018a.152.152,0,0,1,.1-.069l.762-.419c.07-.043.119-.081.163-.1l.189-.1c.066-.024.14-.067.209-.1s.2-.127.41-.247c-.038-.122-.082-.23-.11-.3l-.488-.9-.242-.43-.59-1.087-.61-1.033a2.552,2.552,0,0,0-.283-.412c-.142.069-.477.244-1.012.533l-.273.131-1,.593-.376.293a.2.2,0,0,0-.04.133,4.329,4.329,0,0,0,.186.959,2.376,2.376,0,0,1,.053.248,1.436,1.436,0,0,1-.366.143.491.491,0,0,1-.093-.152l-.319-.575a8.469,8.469,0,0,0-.55-1.166c-.044-.093-.085-.152-.114-.21l-.457-.762a.937.937,0,0,0-.12-.194,2.305,2.305,0,0,1-.291-.418c-.062-.114-.127-.247-.2-.421a3.612,3.612,0,0,1,.433-.21c.28.323.469.54.555.626a2.247,2.247,0,0,0,.331.256l.128-.032.12-.053.136-.09.087-.04a1.408,1.408,0,0,0,.2-.082l.152-.085c.171-.1.273-.162.3-.178l.762-.422.558-.326.762-.405c.186-.093.532-.3,1.067-.61l.85-.482.7-.387c.133-.084.291-.152.485-.256a1.461,1.461,0,0,0-.072-.27,4.946,4.946,0,0,1-.221-.979l.419-.253c.085.16.142.253.152.28a7.538,7.538,0,0,1,.335.675,15.339,15.339,0,0,0,.823,1.6,12.446,12.446,0,0,0,.773,1.227.683.683,0,0,1,.079.227,1.827,1.827,0,0,1-.43.168l-.358-.4-.329-.428a2.026,2.026,0,0,1-.152-.152,17.508,17.508,0,0,0-1.64.829l-.529.253a6.136,6.136,0,0,1-.726.473,4.5,4.5,0,0,0,.232.485l1.524,2.8.021.066.012.038a.529.529,0,0,1,.058.093c.062.1.111.192.162.264l.085.169a.915.915,0,0,0,.189.23l.457-.223.076-.038a1.8,1.8,0,0,1,.2-.128l1.853-1.03c.1-.059.206-.123.3-.192l.011-.07-.355-.974c-.018-.055-.024-.088-.032-.11a.346.346,0,0,1-.009-.169c.076-.066.139-.105.165-.128l.232-.094c.081.152.152.265.207.369s.088.178.133.245a.851.851,0,0,1,.043.113l.447.861c.093.209.236.5.433.852l.078.133c.108.163.163.256.181.277C37.993,85.129,38.22,85.505,38.522,86.033ZM32.739,75.025a6.11,6.11,0,0,0-.229-.931l-.1-.265c-.093-1.076-.165-1.745-.2-2.024a.879.879,0,0,0-.163.014c-.067.015-.171.029-.331.061v.491a1.282,1.282,0,0,1-.082.625.315.315,0,0,1-.242.136,1.483,1.483,0,0,1-.5-.058c-.884-.165-1.446-.271-1.687-.341l-.4-2.576,1.247-.745.61-.375a.524.524,0,0,1,.181-.062.232.232,0,0,1,.152.043,1.22,1.22,0,0,1,.191.37l.287.724a2.685,2.685,0,0,0,.457-.049l-.059-.328-.238-1.142c-.038-.152-.087-.416-.14-.762-.047-.323-.09-.68-.127-1.1s-.067-.776-.117-1.105a1.166,1.166,0,0,0-.152.017c-.066.014-.183.043-.329.085a2.611,2.611,0,0,0-.05.623.925.925,0,0,1-.078.422,1.247,1.247,0,0,1-.3.259,7.451,7.451,0,0,1-.812.5c-.4.233-.7.4-.886.524-.335.212-.762.471-1.28.762s-1.067.63-1.6.985l-2.6,1.614-.114.079.035.3c.029.136.052.279.082.431l4.458.934,3.8.8a1.231,1.231,0,0,1,.434.223,1.981,1.981,0,0,1,.27.61c.081.2.143.349.18.428l.472-.061Zm-4.278-2.439c-.152-1.067-.247-1.677-.279-1.869l-.027-.163c-.393.194-.825.442-1.329.741s-.869.543-1.139.726Zm2.972-9.416c.055-.683.116-1.259.189-1.748l.191-1.148a8.324,8.324,0,0,0,.088-1.158,4.963,4.963,0,0,0-.181-1.25,2.489,2.489,0,0,0-.518-.895,1.66,1.66,0,0,0-.61-.511,2.8,2.8,0,0,0-.915-.3,2,2,0,0,0-1.439.335,2.785,2.785,0,0,0-1.067,1.446A5.229,5.229,0,0,0,26.844,57a2.045,2.045,0,0,0-.515-.643,1.676,1.676,0,0,0-.724-.285,2.459,2.459,0,0,0-.722.023,1.619,1.619,0,0,0-.652.3,1.73,1.73,0,0,0-.526.526,2.675,2.675,0,0,0-.3.521,4.6,4.6,0,0,0-.319,1.107l-.058.43c-.038.2-.044.3-.055.355a.844.844,0,0,0-.012.166l-.034.262-.239,2.225L22.5,63.519l.485.05c.1-.349.152-.569.178-.655a.748.748,0,0,1,.139-.392c.029-.027.044-.05.073-.056a1.836,1.836,0,0,1,.642.023c1.27.152,2.05.242,2.358.285l2.884.39a7.13,7.13,0,0,1,1.105.216,1.219,1.219,0,0,1,.291.163,3.473,3.473,0,0,1,.072.733c0,.152,0,.288,0,.4l.547.1c.093-.887.143-1.408.16-1.6ZM26.571,60.9a6.191,6.191,0,0,0,.127-.637,2.686,2.686,0,0,0-.152-1.6,1.469,1.469,0,0,0-1.219-.7,1.417,1.417,0,0,0-1.16.34,2.259,2.259,0,0,0-.648,1.425c-.012.192-.027.457-.027.762.108.023.251.04.45.061.392.032.922.1,1.622.191l.575.107a3.478,3.478,0,0,1,.434.047Zm4.33.509a2.192,2.192,0,0,0,.3-.8,2.808,2.808,0,0,0-.056-1.291,1.573,1.573,0,0,0-.55-.806,2.46,2.46,0,0,0-1.021-.375,2.155,2.155,0,0,0-1.085.094,1.754,1.754,0,0,0-.844.724,3.963,3.963,0,0,0-.38,1.419,1.405,1.405,0,0,0-.021.6l.829.11,1,.172,1.564.2A.876.876,0,0,0,30.9,61.41Zm2.236-7.04c.137-.44.247-.779.328-1.007l.48-1.117c.247-.486.39-.751.422-.809a.924.924,0,0,0,.084-.152,1.675,1.675,0,0,1,.082-.235.572.572,0,0,1,.049-.136,1.234,1.234,0,0,0-.219-.088,1.556,1.556,0,0,0-.325-.105c-.122.207-.194.334-.216.363a3.84,3.84,0,0,1-.4.666.323.323,0,0,1-.152-.041l-.241-.093L31.752,51.1l-.835-.36-1.677-.672c-.39-.152-.934-.383-1.645-.683a4.653,4.653,0,0,1-.457-.152A2.638,2.638,0,0,1,26.681,49a3.344,3.344,0,0,1,.059-.61c.032-.235.055-.457.064-.648-.108-.05-.209-.093-.274-.131l-.2-.066c-.03.084-.093.279-.2.587-.186.569-.329.983-.433,1.219-.023.055-.088.2-.189.416l-.8,1.8.555.212c.032-.052.066-.133.1-.212a2.932,2.932,0,0,1,.5-.794,1.728,1.728,0,0,1,.227.04l.276.1.736.276.329.152.841.326c.026.008.457.2,1.283.559l.352.133,1.44.594.75.3a1.084,1.084,0,0,1,.489.329,2.56,2.56,0,0,1-.03.707c-.035.215-.05.373-.067.468l.469.186c.026-.081.085-.27.169-.562Zm2.881-6.306c.372-.576.692-1.067.988-1.463l.7-.915a7.507,7.507,0,0,0,.631-.992,5.567,5.567,0,0,0,.424-1.172,2.943,2.943,0,0,0-.035-1.044,1.892,1.892,0,0,0-.3-.738,3.409,3.409,0,0,0-.661-.7,2.033,2.033,0,0,0-1.439-.37,2.881,2.881,0,0,0-1.62.777,7.331,7.331,0,0,0,.152-.986,1.981,1.981,0,0,0-.165-.809,1.676,1.676,0,0,0-.506-.59,2,2,0,0,0-.634-.32,1.786,1.786,0,0,0-.713-.053,2.259,2.259,0,0,0-.713.232,4.183,4.183,0,0,0-.512.32,4.054,4.054,0,0,0-.793.826l-.258.357c-.125.152-.189.253-.221.294a.542.542,0,0,0-.095.134l-.152.219-1.265,1.847-.872,1.26.412.276.466-.5a.883.883,0,0,1,.3-.282.136.136,0,0,1,.1-.017,3.264,3.264,0,0,1,.553.317c1.046.726,1.7,1.175,1.93,1.357l2.372,1.7a10.229,10.229,0,0,1,.881.715,1.2,1.2,0,0,1,.175.274,2.646,2.646,0,0,1-.28.681c-.066.139-.125.265-.169.364l.434.328c.482-.719.782-1.169.883-1.323Zm-3.23-4.292a4.25,4.25,0,0,0,.407-.5,2.743,2.743,0,0,0,.61-1.485,1.484,1.484,0,0,0-.753-1.192,1.41,1.41,0,0,0-1.174-.245,2.236,2.236,0,0,0-1.242.956,7.372,7.372,0,0,0-.384.665c.087.069.207.143.363.259.329.213.779.515,1.332.93l.457.352C32.5,43.567,32.614,43.65,32.788,43.772Zm3.586,2.5a2.094,2.094,0,0,0,.633-.567,2.855,2.855,0,0,0,.559-1.164,1.447,1.447,0,0,0-.11-.972,2.244,2.244,0,0,0-.729-.811,1.963,1.963,0,0,0-1-.418,1.735,1.735,0,0,0-1.082.238,4.408,4.408,0,0,0-1,1.067,1.982,1.982,0,0,0-.3.518l.681.494.818.61,1.282.907a.674.674,0,0,0,.253.1Zm7.091-17.022q.736-.293.957-.152a4.383,4.383,0,0,1,.642,1.152l1.317,2.981a9.3,9.3,0,0,0,.683,1.289,2.7,2.7,0,0,0,.979.882,2.658,2.658,0,0,0,1.352.212,4.957,4.957,0,0,0,1.78-.477,5.571,5.571,0,0,0,1.4-.858,3.506,3.506,0,0,0,.849-.965,2.614,2.614,0,0,0,.338-.992,2.245,2.245,0,0,0-.052-.786,12.23,12.23,0,0,0-.677-1.748l-.626-1.244c-.143-.3-.291-.61-.434-.9a1.286,1.286,0,0,1-.126-.256,3.621,3.621,0,0,1-.152-.346c-.113-.253-.207-.431-.262-.533a2.153,2.153,0,0,1-.168-.322.3.3,0,0,1-.02-.265,2.164,2.164,0,0,1,.428-.294,2.515,2.515,0,0,0,.457-.293.457.457,0,0,0-.056-.178.982.982,0,0,0-.152-.268l-.11.03a11,11,0,0,1-1.139.569l-1.219.479-.5.215.2.489.091-.02.578-.273a.78.78,0,0,1,.552,0c.11.043.221.191.351.436l.174.3c.678,1.219,1.238,2.324,1.677,3.335a5.422,5.422,0,0,1,.457,1.337,3.059,3.059,0,0,1-.034.783,1.267,1.267,0,0,1-.219.524,2.007,2.007,0,0,1-.444.546,4.889,4.889,0,0,1-1.053.651,2.458,2.458,0,0,1-1.146.2,1.585,1.585,0,0,1-.8-.268,2.655,2.655,0,0,1-.808-1L47.76,31.7,47.3,30.6l-.253-.485-.247-.591-.111-.226c-.043-.079-.093-.183-.152-.316a2.534,2.534,0,0,1-.265-.779.678.678,0,0,1,.413-.346,5.2,5.2,0,0,0,.7-.369l-.012-.047-.177-.364L47.155,27a4.041,4.041,0,0,1-.5.229c-.247.114-.523.251-.834.413s-.643.3-.974.448c-.1.044-.428.178-.991.39-.227.095-.457.186-.668.277-.076.041-.152.075-.233.117l.244.485A1.22,1.22,0,0,0,43.465,29.249ZM57.707,24.3a1.585,1.585,0,0,1,.544.343.61.61,0,0,1,.165.273,3.728,3.728,0,0,1,.139,1.093l.076,1.392.069,2.216v.393c0,.152.018.6,0,1.326,0,.245-.02.4-.1.457a1.629,1.629,0,0,1-.674.111h-.27a1.968,1.968,0,0,0-.317.038V32.2c0,.082.02.171.02.279a1.171,1.171,0,0,0,.239.02l.393-.037c.242-.024.727-.062,1.453-.1.777.052,1.247.075,1.389.062l.27-.018-.05-.573a1.371,1.371,0,0,0-.181-.04,5.525,5.525,0,0,1-1.164-.105c-.041-.093-.072-.165-.093-.206a2.013,2.013,0,0,1-.032-.255c-.058-.436-.1-.837-.128-1.21l-.076-.89V28.64c0-.165,0-.317-.015-.472l-.16-2.541,1.148.971c.474.395,1,.861,1.584,1.389l.882.852,1.2,1.122,1.716,1.59.857.817.779-.056-.018-.366c0-.037-.014-.152-.038-.332l.012-.367-.037-.361-.029-.837a2.789,2.789,0,0,0-.021-.369l-.152-2.4c0-.152-.026-.294-.032-.412-.049-.386-.082-.915-.111-1.571-.011-.3-.026-.491-.026-.576-.021-.169-.029-.261-.029-.29a.419.419,0,0,1,.055-.255,3.482,3.482,0,0,1,.346-.262,2.942,2.942,0,0,1,.5-.152,1.013,1.013,0,0,0,.3-.137l-.026-.445c-.088,0-.174.008-.285.017l-1.482.1-1.349.082-.163.03v.4a2.134,2.134,0,0,0,.559.14,1.257,1.257,0,0,1,.675.207c.067.059.1.235.113.532,0,.1.052.439.117,1.029a9.309,9.309,0,0,1,.076,1.026c.029.378.055.7.084.974s.059.643.09,1.108l.052.791v.171c-2.872-2.673-4.536-4.222-5-4.672s-1.055-.983-1.786-1.6h-.213c-.049,0-.172.011-.422.032s-.38.024-.418.032a1.083,1.083,0,0,1-.152-.008c-.273,0-.418.008-.483.008-.1,0-.3.014-.569.04h-.194l-.6.03.05.479a5.074,5.074,0,0,1,.939.166Zm12.764,8.432c.457.072.8.131,1.044.184l1.175.3c.515.175.8.291.86.314a1.167,1.167,0,0,0,.168.061c.015,0,.117.018.253.049a.761.761,0,0,1,.123.023c.034-.1.05-.171.073-.226a2.628,2.628,0,0,0,.047-.337c-.213-.091-.349-.14-.381-.165a5.029,5.029,0,0,1-.722-.3.457.457,0,0,1,.024-.152l.062-.259.32-1.329.238-.884.433-1.759c.094-.407.247-.974.45-1.718.017-.128.055-.277.094-.479a2.936,2.936,0,0,1,.152-.492c.152,0,.367-.023.61-.014s.457-.009.657-.018c.032-.127.059-.223.082-.3a1.293,1.293,0,0,0,.044-.207c-.088-.021-.288-.055-.61-.111-.588-.114-1.012-.2-1.27-.261l-.442-.123-1.872-.558-.125.6a1.245,1.245,0,0,0,.226.076,2.744,2.744,0,0,1,.857.386,1.472,1.472,0,0,1,0,.221l-.07.293-.16.762-.107.349-.218.886c0,.027-.127.476-.373,1.35l-.091.36-.381,1.509-.2.793a1.285,1.285,0,0,1-.261.535,2.652,2.652,0,0,1-.715.07h-.457l-.12.479Zm8.795-6.266a2.228,2.228,0,0,1,.479.384.777.777,0,0,1,.12.341c0,.07-.015.578-.072,1.512l-.184,2.013-.227,3.17c-.105.915-.163,1.434-.194,1.584s-.043.291-.059.437a2.591,2.591,0,0,0,.325.178,1.615,1.615,0,0,0,.3.152c.2-.171.544-.5,1.026-.969l.122-.076c.378-.334.61-.524.665-.576.226-.207.457-.395.642-.564a7.191,7.191,0,0,0,.57-.491l1.843-1.585a17.4,17.4,0,0,1,1.559-1.262.915.915,0,0,1,.28-.114,6.476,6.476,0,0,1,1.117.11,1.109,1.109,0,0,0,.113-.224l.116-.2c-.152-.07-.363-.152-.61-.259a7.5,7.5,0,0,1-.886-.4c-.331-.181-.652-.369-.983-.59s-.533-.344-.6-.38a2.317,2.317,0,0,0-.172.267.762.762,0,0,0-.059.213c.059.047.143.093.226.152a1.258,1.258,0,0,1,.2.152,1.318,1.318,0,0,1,.482.476.258.258,0,0,1,.02.264,1.576,1.576,0,0,1-.349.4c-.166.152-.4.38-.7.672a2.733,2.733,0,0,1-.209.216l-.405.334L82,33.421l-.818.678c.043-.328.075-.678.1-1.058l.152-1.924a16.551,16.551,0,0,1,.183-2.049l.091-.626a.265.265,0,0,1,.055-.142.235.235,0,0,1,.139-.122.922.922,0,0,1,.5.021c.072.015.329.11.753.27.021-.034.1-.207.247-.5l-.434-.236c-.152-.05-.361-.137-.637-.259-.38-.168-.626-.288-.744-.357A19.627,19.627,0,0,1,79.675,26c-.049-.023-.169-.1-.366-.216l-.283.526Zm10.983,6.4c.078.084.127.169.2.235a4.266,4.266,0,0,1,.457.61c.04.064.087.13.108.171a.317.317,0,0,1,.069.218,1.213,1.213,0,0,0-.084.108l-.573.622-.558.535-.762.785-.567.529-1.846,1.806-.142.142c-.143.136-.238.232-.283.283a1.454,1.454,0,0,1-.415.294,4.007,4.007,0,0,1-.835-.555,4.053,4.053,0,0,0-.424-.322l-.34.338.6.573.2.2c.6.544,1.067,1.009,1.459,1.408.762.786,1.405,1.472,1.916,2.058.742.832,1.209,1.332,1.372,1.524.122.119.3.288.508.492l.646-.457,1.1-.721.187-.11a1.867,1.867,0,0,1,.23-.181,2.036,2.036,0,0,0-.166-.16,1.98,1.98,0,0,0-.258-.241,3.463,3.463,0,0,1-1.453.34,1.677,1.677,0,0,1-.9-.274,8.262,8.262,0,0,1-1.228-1.067,5.574,5.574,0,0,1-1.1-1.337.378.378,0,0,1,.123-.392l1.067-1.014c.271-.253.594-.562.975-.942a1.4,1.4,0,0,1,.169-.162c.273.221.643.584,1.125,1.067a5.8,5.8,0,0,1,.672.762.488.488,0,0,1,.055.323,2.765,2.765,0,0,1-.408.73,4.131,4.131,0,0,0-.245.376l.34.357.105-.1c.1-.1.247-.239.415-.434.194-.2.326-.349.415-.428s.152-.137.241-.219.329-.3.671-.637c.152-.152.373-.363.649-.669l-.285-.274L93.375,39a6.653,6.653,0,0,1-.886.527.668.668,0,0,1-.361.052,1.6,1.6,0,0,1-.544-.375c-.265-.23-.683-.631-1.238-1.212-.059-.062-.12-.14-.192-.23l.61-.594.832-.788c.558-.547.883-.854.96-.94.312.3.665.658,1.053,1.067.341.344.648.689.915,1.017.152.194.244.3.27.329a1.8,1.8,0,0,1,.27.355,3.152,3.152,0,0,1-.152.75l-.16.547c-.075.18-.136.3-.175.405a2.345,2.345,0,0,0,.152.181l.206.192c.043-.041.088-.069.094-.082l.2-.206L96.255,39a.473.473,0,0,0,.163-.334,7.194,7.194,0,0,0-.774-.957l-.869-.886c-.572-.61-1.219-1.239-1.966-1.948-.491-.474-.783-.762-.9-.886a8.8,8.8,0,0,1-.823-.954c-.105-.152-.259-.328-.428-.535Zm1.61,13.672a1.984,1.984,0,0,0-.207.114l.152.265a6.711,6.711,0,0,0,.367.681l.483.823c.023.044.061.122.119.23.078.16.285.7.64,1.62l.131.253c.009.024.032.07.072.152a3.449,3.449,0,0,0,.479-.2,6.061,6.061,0,0,0-.18-.943,1.7,1.7,0,0,1-.062-.529l1.183-.52,1.346-.7a3.876,3.876,0,0,1,.431-.186c.1.189.172.332.221.413a1.343,1.343,0,0,1,.18.693,2.822,2.822,0,0,1-.471.762c-.654.866-1.137,1.478-1.446,1.852-.113.152-.29.38-.5.7l-.3.389a2.538,2.538,0,0,0,.152.265c.145.236.221.37.242.413l.3.622c.09.191.163.36.219.5l.116.245.113.338.079.122.066.163a.562.562,0,0,0,.152-.062.628.628,0,0,0,.163-.123,1.971,1.971,0,0,0,0-.523,2.151,2.151,0,0,1,0-.584,5.861,5.861,0,0,1,.5-.843l1.123-1.765c.116-.18.264-.425.415-.713.082-.139.152-.251.221-.346a2.591,2.591,0,0,0,1.361.85,1.965,1.965,0,0,0,1.311-.152,2.139,2.139,0,0,0,1.117-1.462,3.226,3.226,0,0,0-.335-2.318A16.424,16.424,0,0,0,101,45.557l-.413-.745-.171-.32c-.018-.024-.079-.192-.209-.5-.152-.282-.239-.476-.287-.561a3.541,3.541,0,0,0-.322-.552l-.078.012-.363.186c.038.12.133.355.264.7l.1.392c-.23.13-.771.407-1.619.825-.393.191-.8.387-1.256.594l-.34.152-.575.294-.753.341-1.357.675c-.344.163-.538.258-.6.282a1.328,1.328,0,0,1-.2.041,3.306,3.306,0,0,1-.408-.5,1.311,1.311,0,0,0-.361-.408,1.067,1.067,0,0,0-.191.07Zm5.53.762c.079.207.152.344.189.437a2.492,2.492,0,0,0,1.1,1.306,1.361,1.361,0,0,0,1.219-.053,2.521,2.521,0,0,0,.662-.457,1.454,1.454,0,0,0,.389-.515,1.829,1.829,0,0,0,.076-.776,3.506,3.506,0,0,0-.34-.915,2.325,2.325,0,0,0-.274-.466l-.114.041-.812.415-.523.229-.668.338c-.191.078-.431.2-.741.331Zm8.032,11.14a5.246,5.246,0,0,0-.073-.979,3.144,3.144,0,0,0-1.19-2.117,2.5,2.5,0,0,0-1.956-.41,2.788,2.788,0,0,0-1.058.489,2.417,2.417,0,0,0-.774.937,7.353,7.353,0,0,0-.444,1.866,5.62,5.62,0,0,1-.4,1.657,1.315,1.315,0,0,1-.834.64,1.381,1.381,0,0,1-.811-.125,1.457,1.457,0,0,1-.637-.6,2.511,2.511,0,0,1-.323-.776,2.071,2.071,0,0,1-.008-.78,1.606,1.606,0,0,1,.209-.668,2.734,2.734,0,0,1,.457-.567,8.939,8.939,0,0,1,.831-.593l-.133-.61-.258.047c-.117.023-.319.069-.61.128-.555.133-.857.2-.915.2l-.073.021c-.059.027-.1.055-.11.085a1.471,1.471,0,0,0-.087.457l-.085.857a6.366,6.366,0,0,0,.085,1.152,4.181,4.181,0,0,0,.352,1.143,3.372,3.372,0,0,0,.564.8,4.277,4.277,0,0,0,.6.54,1.9,1.9,0,0,0,.692.29,3.539,3.539,0,0,0,1.293-.009,2.833,2.833,0,0,0,.933-.337,2.725,2.725,0,0,0,.7-.7,2.878,2.878,0,0,0,.41-1,6.363,6.363,0,0,0,.183-1.067,3.953,3.953,0,0,1,.447-1.754,1.271,1.271,0,0,1,.762-.546,1.131,1.131,0,0,1,.924.218,1.587,1.587,0,0,1,.558.959,1.642,1.642,0,0,1-.319,1.314,3.593,3.593,0,0,1-1.082.823v.078l.07.5.027.064a1.371,1.371,0,0,0,.261-.015,10.24,10.24,0,0,0,1.067-.291c.3-.1.521-.187.668-.258a8.6,8.6,0,0,0,.09-1.075ZM96.981,64c.043.457.053.819.053,1.056l-.04,1.219c-.064.543-.1.85-.1.915a1.415,1.415,0,0,0-.03.171c0,.023,0,.11.012.262v.128c.107.011.181.023.232.023.095,0,.215-.012.341-.023.043-.242.064-.386.064-.422a6.9,6.9,0,0,1,.139-.762c.07-.008.122-.014.152-.014h.265l1.372.02.914.03,1.815.02c.412.009,1,.024,1.78.056a3.709,3.709,0,0,1,.469-.011,2.2,2.2,0,0,1,.52.046,5.025,5.025,0,0,1,.175.584,3.443,3.443,0,0,0,.165.626c.116.012.215.024.293.024h.218c0-.088-.011-.3-.024-.631-.035-.61-.035-1.029-.035-1.293a3.968,3.968,0,0,1,.027-.457l.11-1.952h-.6a1.1,1.1,0,0,0-.027.244,2.637,2.637,0,0,1-.174.915,1.542,1.542,0,0,1-.229.044h-.291l-.78.014-.36-.026h-.915c-.026,0-.485-.029-1.393-.075h-.373l-1.562-.047h-.8a1.185,1.185,0,0,1-.582-.133,2.777,2.777,0,0,1-.218-.675c-.049-.215-.082-.358-.108-.457l-.5-.008a4.577,4.577,0,0,0,.031.575Zm8.359,7.682a13.633,13.633,0,0,1-1.582-1.03,1.546,1.546,0,0,0-.355.328c-.012.059.037.152.136.3a4.224,4.224,0,0,1,.675,1.088,2.178,2.178,0,0,1-.1.863,11.948,11.948,0,0,1-.4,1.329.11.11,0,0,1-.053.079.126.126,0,0,1-.1.02,11.26,11.26,0,0,1-1.264-.3l-2.51-.645c-1.16-.3-1.989-.543-2.523-.715a1,1,0,0,1-.3-.169,6.769,6.769,0,0,1-.04-1.038.974.974,0,0,0-.127-.622l-.058-.011-.152-.038c-.034,0-.088-.023-.152-.035-.021.081-.059.241-.1.5-.12.657-.2,1.059-.23,1.192-.226.831-.39,1.408-.512,1.716a10.743,10.743,0,0,0-.361,1.149,1.989,1.989,0,0,1-.061.242c.076.03.127.053.171.066a2.435,2.435,0,0,0,.291.035,2.542,2.542,0,0,0,.2-.32,2.773,2.773,0,0,0,.23-.457,2.251,2.251,0,0,1,.2-.366,1.854,1.854,0,0,1,.709.1l.867.232,2.1.546,1.937.521.9.241a2.345,2.345,0,0,1,.412.14,4.729,4.729,0,0,1-.1.473,13.11,13.11,0,0,1-.408,1.384.386.386,0,0,1-.152.162,3.681,3.681,0,0,1-.61.111,4.174,4.174,0,0,0-.84.186,2.39,2.39,0,0,0-.03.5,2.4,2.4,0,0,0,.3.113l.335.091.582.163c.626.152,1.085.27,1.381.348.027-.084.041-.152.059-.2l.076-.29a1.252,1.252,0,0,0-.163-.116,1.334,1.334,0,0,1-.268-.265l.049-.412.547-2.049.4-1.491.218-.811.024-.125c.07-.267.152-.569.247-.914.137-.543.226-.841.248-.9a3.134,3.134,0,0,1,.5-.171.457.457,0,0,0,.131-.037l.11-.408C105.727,71.914,105.568,71.818,105.339,71.683Zm-3.734,11.6c-.026-.023-.067-.047-.082-.059a.663.663,0,0,0-.1-.035c-.271.273-.418.415-.457.448a.933.933,0,0,1-.259.125c-.421.029-.658.05-.7.05l-1.19-.021-2.446.017a2.779,2.779,0,0,0-.407.026,1.684,1.684,0,0,1-1.078-.152l-.133-.082c-.037-.026-.163-.1-.376-.238s-.61-.4-1.2-.773l-.331-.219c.014-.049.021-.105.035-.168l.471-1.2c-.078-.053-.136-.093-.18-.12a.973.973,0,0,0-.183-.105l-.258.392a2.788,2.788,0,0,0-.247.457,1.031,1.031,0,0,1-.145.273l-.3.477-.415.649-.29.412-.457.581-.457.655a1.848,1.848,0,0,0,.152.11.663.663,0,0,0,.133.1.133.133,0,0,0,.142.024,2.5,2.5,0,0,0,.491-.553c.152-.168.247-.282.3-.329a.381.381,0,0,1,.1-.021l1.485.937a2.117,2.117,0,0,1,.294.21l.152.1.494.329.177.117a.777.777,0,0,1,.142.221c.139.264.364.832.689,1.677l.631,1.48a4.478,4.478,0,0,1,.494,1.311,2.086,2.086,0,0,1-.22.8l-.021.088.424.277a1.088,1.088,0,0,1,.093-.166c.12-.21.2-.376.268-.517l.059-.1.178-.279a.492.492,0,0,1,.11-.126L98,89.211a4.054,4.054,0,0,0-.447-.235c-.037.037-.087.09-.152.16a1.677,1.677,0,0,1-.186.2,1.23,1.23,0,0,1-.181.233.527.527,0,0,1-.152.1.76.76,0,0,1-.122-.046.886.886,0,0,1-.178-.264L96.039,88.3l0-.062c-.276-.623-.468-1.119-.6-1.485l-.457-1.131A2.913,2.913,0,0,1,95.4,85.6h.5a1.072,1.072,0,0,1,.142,0c.44.017.683.023.745.017H97.5a9.991,9.991,0,0,1,1.8.023l.073.062v.047c-.084.184-.145.317-.194.428l-.116.279a1.579,1.579,0,0,0-.12.367l.285.2a.747.747,0,0,0,.137.043l.029-.043a.587.587,0,0,0,.041-.1,8.376,8.376,0,0,1,.526-.936c.2-.283.445-.651.8-1.108a5.365,5.365,0,0,1,.354-.442l.03-.07c.023-.035.072-.093.145-.181l.049-.049a3.394,3.394,0,0,0,.421-.748A1.746,1.746,0,0,1,101.605,83.279Z" transform="translate(-19.071 -19.647)" fill="#fff" fill-rule="evenodd"/>
      </g>
      <g id="Group_1474" data-name="Group 1474" transform="translate(0 101.799)">
        <path id="Path_97" data-name="Path 97" d="M148.287,0H0" transform="translate(0 24.711)" fill="#231f20" stroke="#5e2568" stroke-width="0.6"/>
        <g id="Group_1473" data-name="Group 1473" transform="translate(0.586 0)">
          <path id="Path_44" data-name="Path 44" d="M614.511,148.48c.535,0,1.535.067,3.136.067,1.646,0,2.52-.067,3.113-.067a1.106,1.106,0,0,1-.022.712,7.313,7.313,0,0,0-1.045.2c-.445.156-.556.4-.578,1.09-.022.978-.022,2.268-.022,3.8a.274.274,0,0,0,.111.178,28.245,28.245,0,0,0,3.18.044c1.735,0,2.513,0,2.78-.022.045-.022.134-.089.134-.148,0-1.112,0-3.069-.044-4.159a.732.732,0,0,0-.467-.734,4.7,4.7,0,0,0-1.223-.245.8.8,0,0,1,0-.712c.8,0,1.646.067,3.18.067,1.6,0,2.491-.067,3.024-.067a.881.881,0,0,1,0,.712,5.155,5.155,0,0,0-1.09.222c-.422.156-.556.378-.578,1.09-.044,1.245-.044,2.313-.044,5.026,0,1.623,0,3.6.044,4.514.044.6.133.934.534,1.067a6.424,6.424,0,0,0,1.4.267,1.06,1.06,0,0,1-.089.741c-.6,0-1.757-.067-3.2-.067-1.357,0-2.669.067-3.18.067a.946.946,0,0,1-.022-.741,5.557,5.557,0,0,0,1.134-.2c.4-.111.578-.378.6-1.067.022-.912.022-2.758.022-4.2a.148.148,0,0,0-.134-.156c-.422-.022-1.8-.022-2.846-.022-2.291.022-3.025.022-3.158.067a.374.374,0,0,0-.067.133c0,1.334,0,3.18.022,4,.022.689.111,1.045.645,1.2a8.555,8.555,0,0,0,1.268.245,1.045,1.045,0,0,1-.089.741c-.423,0-1.468-.067-3.313-.067-1.579,0-2.689.067-3.158.067a1.213,1.213,0,0,1,0-.741c.513-.067.756-.111,1.069-.178.593-.156.732-.511.777-1.49.022-.467.045-2.468.045-4.425,0-2.157-.022-4.248-.045-4.826-.044-.689-.148-.934-.593-1.045a7.162,7.162,0,0,0-1.222-.222A1.084,1.084,0,0,1,614.511,148.48Z" transform="translate(-614.408 -147.168)" fill="#5e2568"/>
          <path id="Path_45" data-name="Path 45" d="M729.967,180.352a1.889,1.889,0,0,0-1.579-.734,1.664,1.664,0,0,0-1.023.267,6.9,6.9,0,0,0-.8,1.423c-.089.089-.778-.245-.756-.4a4.54,4.54,0,0,1,.489-1.4,7.512,7.512,0,0,1,3.291-1.357,2.884,2.884,0,0,1,2.491,1.29,3.934,3.934,0,0,1,.554,2.246c0,1.067-.065,2.6-.065,3.491,0,.445.148.867.688.867a2.223,2.223,0,0,0,.756-.111,2.539,2.539,0,0,1-.111.823,3.406,3.406,0,0,1-2.224.823,1.263,1.263,0,0,1-1.29-.645l-.133-.422c0-.045-.067-.045-.089-.045a6.025,6.025,0,0,1-2.535,1.112,1.917,1.917,0,0,1-1.29-.534,2.951,2.951,0,0,1-.845-2.135,4.088,4.088,0,0,1,.378-1.312c.689-.378,3.41-1.023,4.225-1.4a.4.4,0,0,0,.178-.245,2.438,2.438,0,0,0,.022-.4A2.138,2.138,0,0,0,729.967,180.352Zm.222,2.557a16.1,16.1,0,0,0-2.135.823,1.819,1.819,0,0,0-.2.734,1.488,1.488,0,0,0,1.49,1.579,1.322,1.322,0,0,0,.711-.2.494.494,0,0,0,.178-.445c.044-.623.044-2,.044-2.379,0-.018-.067-.107-.089-.107Z" transform="translate(-709.026 -172.439)" fill="#5e2568"/>
          <path id="Path_46" data-name="Path 46" d="M792.981,146.457A4.394,4.394,0,0,1,794,149.348a4.85,4.85,0,0,1-1.89,4.07,7.588,7.588,0,0,1-3.6,1.357,8.217,8.217,0,0,1-2.112-.289,2.429,2.429,0,0,0-1.268,0c-.067.022-.2-.111-.2-.156.067-.756.111-2.446.111-5.582-.022-3.247-.022-6.116-.111-6.894-.044-.356-.111-.512-.489-.623a7.156,7.156,0,0,0-.956-.156.973.973,0,0,1,.044-.667,18.525,18.525,0,0,0,4.114-.778c.067.022.148.3.133.4-.178.311-.245.645-.245,3.291v2.98c.022.067.067.089.111.067a7.65,7.65,0,0,1,2.846-1.023A3.178,3.178,0,0,1,792.981,146.457Zm-5.269.623a.421.421,0,0,0-.156.311c-.044.956-.044,3.536.022,4.692a1.317,1.317,0,0,0,.378,1,2.305,2.305,0,0,0,1.557.578,1.466,1.466,0,0,0,1.245-.623,4.335,4.335,0,0,0,.688-2.557,4.421,4.421,0,0,0-.712-2.691,2.165,2.165,0,0,0-1.955-.978A2.668,2.668,0,0,0,787.713,147.08Z" transform="translate(-758.388 -139.63)" fill="#5e2568"/>
          <path id="Path_47" data-name="Path 47" d="M868.017,164.54c-.445,0-1.223-.067-2.535-.067-1.134,0-1.979.067-2.469.067a1.208,1.208,0,0,1,0-.741,3.946,3.946,0,0,0,.867-.178c.289-.111.356-.311.378-.845s.045-1.935.045-3.047c0-.778-.022-1.646-.022-2.046a.777.777,0,0,0-.178-.534,2.14,2.14,0,0,0-.934-.511.921.921,0,0,1,.067-.645,13.724,13.724,0,0,0,3.58-.741c0,.934-.022,2.535-.022,3.825,0,1.156,0,2.646.022,3.669,0,.578.133.756.422.867a5.108,5.108,0,0,0,.867.178A1.081,1.081,0,0,1,868.017,164.54ZM866.223,153.6a2.634,2.634,0,0,1-1.445.111,1.311,1.311,0,0,1-.689-.956,1.581,1.581,0,0,1,.133-.956,2.559,2.559,0,0,1,1.468-.467,1.251,1.251,0,0,1,.89.267,1.448,1.448,0,0,1,.2.756A1.713,1.713,0,0,1,866.223,153.6Z" transform="translate(-826.107 -149.595)" fill="#5e2568"/>
          <path id="Path_48" data-name="Path 48" d="M909.823,146.457a4.394,4.394,0,0,1,1.023,2.891,4.85,4.85,0,0,1-1.89,4.07,7.588,7.588,0,0,1-3.6,1.357,8.216,8.216,0,0,1-2.113-.289,2.43,2.43,0,0,0-1.268,0c-.067.022-.2-.111-.2-.156.066-.756.111-2.446.111-5.582-.022-3.247-.022-6.116-.111-6.894-.044-.356-.111-.512-.489-.623a7.16,7.16,0,0,0-.956-.156.975.975,0,0,1,.044-.667,18.528,18.528,0,0,0,4.114-.778c.067.022.148.3.133.4-.178.311-.244.645-.244,3.291v2.98c.022.067.067.089.111.067a7.65,7.65,0,0,1,2.846-1.023A3.181,3.181,0,0,1,909.823,146.457Zm-5.27.623a.422.422,0,0,0-.148.311c-.044.956-.044,3.536.022,4.692a1.318,1.318,0,0,0,.378,1,2.3,2.3,0,0,0,1.557.578,1.466,1.466,0,0,0,1.245-.623,4.325,4.325,0,0,0,.689-2.557,4.482,4.482,0,0,0-.712-2.691,2.169,2.169,0,0,0-1.957-.978A2.668,2.668,0,0,0,904.552,147.08Z" transform="translate(-857.906 -139.63)" fill="#5e2568"/>
          <path id="Path_49" data-name="Path 49" d="M1006.942,148.48c.69,0,1.979.067,3.225.067,1.312,0,2.424-.067,3.2-.067a.982.982,0,0,1,0,.712c-.4.067-.756.133-1.023.2-.534.111-.712.467-.742,1.186-.044,1.779,0,4.136,0,5.315a13.486,13.486,0,0,0,.267,2.624c.311,1.446,1.468,2.468,3.625,2.468,1.6,0,3.291-.534,3.513-3.714.111-1.668.132-4.848.043-6.4-.043-.934-.245-1.312-.977-1.445a9.989,9.989,0,0,0-1.245-.222,1.119,1.119,0,0,1,.022-.712c.688,0,1.622.067,2.734.067,1.446,0,2.112-.067,2.579-.067a.88.88,0,0,1,0,.712,8.486,8.486,0,0,0-.934.2c-.578.156-.756.511-.8,1.6-.067,2-.111,4.6-.267,6.115-.334,4.025-2.645,5.337-5.714,5.337-3.855,0-5.248-1.846-5.515-4.092-.2-1.557-.155-5.693-.178-7.828-.023-.578-.178-.956-.689-1.112a6.685,6.685,0,0,0-1.156-.222A1.183,1.183,0,0,1,1006.942,148.48Z" transform="translate(-948.688 -147.168)" fill="#5e2568"/>
          <path id="Path_50" data-name="Path 50" d="M1110.66,186.031c.311-.089.422-.4.467-.845.022-.667.044-2.372.044-3.491,0-.645-.022-1.468-.044-1.757-.045-.222-.222-.511-1.09-.823a1.32,1.32,0,0,1,.111-.6,11.747,11.747,0,0,0,3.41-.934.225.225,0,0,1,.089.148c0,.245-.022.867-.022,1.245a.078.078,0,0,0,.038.062.081.081,0,0,0,.073,0,5.394,5.394,0,0,1,2.912-1.379,2.531,2.531,0,0,1,2.246,1.179,4.785,4.785,0,0,1,.578,2.624c0,1.312,0,3.247.023,3.981a.461.461,0,0,0,.2.378,2.515,2.515,0,0,0,1.089.334,1.23,1.23,0,0,1-.111.741c-.334,0-1-.067-2.424-.067-1.156,0-1.689.044-2.372.067a1.643,1.643,0,0,1,0-.741,6.013,6.013,0,0,0,.711-.133c.267-.111.354-.311.378-.741a39.33,39.33,0,0,0-.09-4.559,1.7,1.7,0,0,0-.644-1.112,1.61,1.61,0,0,0-1.09-.334,2.462,2.462,0,0,0-1.29.423.593.593,0,0,0-.2.489c.022,1.49.022,3.869.044,5.048.022.556.148.689.468.778a3.653,3.653,0,0,0,.741.133,1.423,1.423,0,0,1-.067.741c-.69-.022-1.423-.067-2.491-.067-1.357,0-1.979.044-2.4.067a1.372,1.372,0,0,1,0-.741A4.257,4.257,0,0,0,1110.66,186.031Z" transform="translate(-1036.438 -171.954)" fill="#5e2568"/>
          <path id="Path_51" data-name="Path 51" d="M1193.06,164.54c-.444,0-1.223-.067-2.535-.067-1.134,0-1.979.067-2.469.067a1.216,1.216,0,0,1,0-.741,3.945,3.945,0,0,0,.867-.178c.3-.111.356-.311.378-.845s.045-1.935.045-3.047c0-.778-.023-1.646-.023-2.046a.773.773,0,0,0-.178-.534,2.137,2.137,0,0,0-.934-.511.923.923,0,0,1,.067-.645,13.722,13.722,0,0,0,3.58-.741c0,.934-.022,2.535-.022,3.825,0,1.156,0,2.646.022,3.669,0,.578.134.756.423.867a5.1,5.1,0,0,0,.867.178A1.077,1.077,0,0,1,1193.06,164.54Zm-1.8-10.941a2.634,2.634,0,0,1-1.446.111,1.311,1.311,0,0,1-.689-.956,1.582,1.582,0,0,1,.133-.956,2.559,2.559,0,0,1,1.468-.467,1.251,1.251,0,0,1,.889.267,1.448,1.448,0,0,1,.2.756A1.714,1.714,0,0,1,1191.26,153.6Z" transform="translate(-1102.961 -149.595)" fill="#5e2568"/>
          <path id="Path_52" data-name="Path 52" d="M1223.719,179.83c.645.022,1.646.067,2.557.067,1.089,0,1.845-.044,2.335-.067a.877.877,0,0,1,.044.712,6.942,6.942,0,0,0-.8.2.241.241,0,0,0-.134.3c.267.867,1.423,3.869,1.8,4.781.022.044.067.022.089,0,.422-1.045,1.29-3.2,1.579-4.181.2-.593.044-.778-.2-.867a4.7,4.7,0,0,0-1-.222,1.083,1.083,0,0,1,.089-.712c.311,0,1.186.067,2,.067.712,0,1.535-.044,1.957-.067a.988.988,0,0,1-.022.712,5.82,5.82,0,0,0-.778.178c-.356.133-.593.445-.89,1.067-.578,1.2-1.379,3.047-2.135,4.937-.356.934-.578,1.557-.756,2.09a7.607,7.607,0,0,0-1.423.022c-.178-.578-.422-1.223-.689-1.935-.556-1.512-1.268-3.247-1.69-4.292-.645-1.534-.756-1.712-1.267-1.89a5.539,5.539,0,0,0-.778-.178A1.474,1.474,0,0,1,1223.719,179.83Z" transform="translate(-1133.286 -173.87)" fill="#5e2568"/>
          <path id="Path_53" data-name="Path 53" d="M1303.856,185.007a2.593,2.593,0,0,1-.089.689,5.44,5.44,0,0,1-3.914,1.912,3.931,3.931,0,0,1-2.891-1.067,5.037,5.037,0,0,1-1.312-3.625,4.629,4.629,0,0,1,2.046-4,5.387,5.387,0,0,1,2.58-.734,3.411,3.411,0,0,1,3.38,3.2c.022.111.2.222.356.267a1.326,1.326,0,0,1-.148.578,40.068,40.068,0,0,1-5.6.511c-.067,0-.111.133-.111.222a3.19,3.19,0,0,0,.867,1.957,2.866,2.866,0,0,0,2.2.845,3.944,3.944,0,0,0,2.557-.89C1303.788,184.9,1303.856,184.94,1303.856,185.007Zm-5.737-3.38c0,.022.045.133.134.133a22.6,22.6,0,0,0,2.817-.089.246.246,0,0,0,.148-.2c-.111-1.312-.667-2.424-1.631-2.424-.847,0-1.447,1.067-1.469,2.58Z" transform="translate(-1194.653 -172.465)" fill="#5e2568"/>
          <path id="Path_54" data-name="Path 54" d="M1365.242,178.269a1.509,1.509,0,0,1,0,.445,7.566,7.566,0,0,1-.89,1.824.4.4,0,0,1-.267.067,2.562,2.562,0,0,0-1.668-.867,1.186,1.186,0,0,0-.823.467.885.885,0,0,0-.134.467c-.023,1.268,0,4.07.022,4.4.045.578.111.778.556.889a6.382,6.382,0,0,0,1.223.2,1.255,1.255,0,0,1-.111.741c-.4,0-1.6-.067-3-.067-.934,0-1.927.067-2.446.067a1.2,1.2,0,0,1,0-.741,2.866,2.866,0,0,0,.867-.178c.2-.067.334-.245.356-.689.044-.4.067-2.068.067-3.514,0-.778,0-1.445-.044-1.779-.022-.3-.148-.578-1.156-.934a1.573,1.573,0,0,1,.111-.578,10.881,10.881,0,0,0,3.4-.912.209.209,0,0,1,.156.111c-.023.289-.089,1.357-.089,1.712,0,.067.089.067.134.044a10.467,10.467,0,0,1,1.312-1.312,2.123,2.123,0,0,1,1.224-.467A1.319,1.319,0,0,1,1365.242,178.269Z" transform="translate(-1247.456 -171.954)" fill="#5e2568"/>
          <path id="Path_55" data-name="Path 55" d="M1419.828,180.982a1.214,1.214,0,0,1-.689.044c-.178-.934-.4-1.512-.912-1.824a1.938,1.938,0,0,0-.978-.267,1.1,1.1,0,0,0-1.2,1.067c0,.645.267,1.023,2.135,1.89,1.779.8,2.313,1.557,2.313,2.735,0,1.846-1.756,2.958-3.825,2.958a8.437,8.437,0,0,1-2.646-.423c-.111-.489-.311-2.246-.334-2.669a1.491,1.491,0,0,1,.712-.222,3.514,3.514,0,0,0,1.4,2.2,2.341,2.341,0,0,0,1.186.311c.778,0,1.267-.423,1.267-1.023,0-.667-.4-1.045-1.534-1.6-2.135-1.023-2.78-1.846-2.78-3.136,0-1.534,1.2-2.846,3.6-2.846a12.258,12.258,0,0,1,1.534.133l1.023.133A18.56,18.56,0,0,0,1419.828,180.982Z" transform="translate(-1295.193 -172.465)" fill="#5e2568"/>
          <path id="Path_56" data-name="Path 56" d="M1471.917,164.54c-.444,0-1.223-.067-2.535-.067-1.134,0-1.979.067-2.468.067a1.2,1.2,0,0,1,0-.741,3.941,3.941,0,0,0,.867-.178c.3-.111.356-.311.378-.845s.045-1.935.045-3.047c0-.778-.022-1.646-.022-2.046a.778.778,0,0,0-.178-.534,2.144,2.144,0,0,0-.934-.511.919.919,0,0,1,.067-.645,13.722,13.722,0,0,0,3.58-.741c0,.934-.022,2.535-.022,3.825,0,1.156,0,2.646.022,3.669,0,.578.133.756.422.867a5.11,5.11,0,0,0,.867.178A1.128,1.128,0,0,1,1471.917,164.54Zm-1.8-10.941a2.633,2.633,0,0,1-1.445.111,1.311,1.311,0,0,1-.689-.956,1.576,1.576,0,0,1,.133-.956,2.558,2.558,0,0,1,1.468-.467,1.25,1.25,0,0,1,.889.267,1.448,1.448,0,0,1,.2.756,1.715,1.715,0,0,1-.557,1.245Z" transform="translate(-1340.475 -149.595)" fill="#5e2568"/>
          <path id="Path_57" data-name="Path 57" d="M1509.765,163.341c-.045,0-.089.089-.089.133-.022.912-.022,2.6-.022,3.669a7.355,7.355,0,0,0,.111,1.646,1.155,1.155,0,0,0,1.2.867,1.987,1.987,0,0,0,1.245-.334,1.755,1.755,0,0,1-.022.756,3.2,3.2,0,0,1-2.513,1.134,2.329,2.329,0,0,1-2.18-1.09,4.815,4.815,0,0,1-.334-2.491c0-1.156.023-3.158.023-4.092a.214.214,0,0,0-.134-.2c-.311-.022-.779-.045-1.112-.089a3.248,3.248,0,0,1,.2-.867,5.8,5.8,0,0,0,.934-.222c.044,0,.089-.089.112-.178v-1.89a8.914,8.914,0,0,0,2.113-1.134,1.651,1.651,0,0,1,.467-.022c-.044.445-.089,1.512-.089,3,0,.067.045.156.089.156.667,0,2.023-.067,2.535-.111a9.823,9.823,0,0,0-.222,1.379C1511.455,163.341,1510.545,163.341,1509.765,163.341Z" transform="translate(-1373.766 -156.069)" fill="#5e2568"/>
          <path id="Path_58" data-name="Path 58" d="M1551.474,179.83c.311,0,1.334.067,2.624.067,1.2,0,1.935-.067,2.469-.067a1.286,1.286,0,0,1,.044.712,4.225,4.225,0,0,0-.71.2.378.378,0,0,0-.178.4c.356,1.067,1.557,4.114,1.8,4.626h.089a25.134,25.134,0,0,0,1.533-4.292c.024-.3.024-.578-.4-.712a4.619,4.619,0,0,0-.978-.222,1.626,1.626,0,0,1,.089-.712c.423,0,1.177.067,2,.067.756,0,1.468-.045,2.113-.067a1.279,1.279,0,0,1,.022.712,2.908,2.908,0,0,0-.8.222c-.4.156-.667.467-.934,1.223a83.792,83.792,0,0,1-5,10.63c-.267.489-.6,1.067-.756,1.379l-.245.067a2.71,2.71,0,0,1-1.4-.667.884.884,0,0,1,.022-.422,25.679,25.679,0,0,0,3.158-4.425,3.266,3.266,0,0,1-.267-.511c-.511-1.245-1.379-3.41-2.157-5.226-.645-1.512-.845-1.89-1.468-2.09-.223-.067-.49-.111-.779-.178A1.4,1.4,0,0,1,1551.474,179.83Z" transform="translate(-1412.451 -173.87)" fill="#5e2568"/>
        </g>
        <g id="Group_1472" data-name="Group 1472" transform="translate(0.855 29.428)">
          <path id="Path_59" data-name="Path 59" d="M620.271,362.912c-.018.052-.245.052-.28.018-.087-.787-.245-1.186-.63-1.365a1.665,1.665,0,0,0-.769-.175,1.032,1.032,0,0,0-1.085,1.067c0,.593.193.98,1.471,1.631,1.416.716,1.732,1.241,1.732,2.046a2.275,2.275,0,0,1-2.536,2.064,4.91,4.91,0,0,1-1.732-.332,10.913,10.913,0,0,1-.21-1.819c.018-.052.21-.105.28-.07a2.179,2.179,0,0,0,1.068,1.68,1.684,1.684,0,0,0,.787.191,1.1,1.1,0,0,0,1.207-1.066c0-.646-.316-1-1.26-1.523-1.469-.77-1.855-1.364-1.855-2.239,0-1.05.823-1.96,2.372-1.96a5.788,5.788,0,0,1,1,.087,5.935,5.935,0,0,0,.63.07A9.916,9.916,0,0,0,620.271,362.912Z" transform="translate(-616.23 -355.95)" fill="#5e2568"/>
          <path id="Path_60" data-name="Path 60" d="M676.285,327.149a7.21,7.21,0,0,0,2.4-.559.221.221,0,0,1,.07.157c-.105.193-.141.368-.157,1.521-.036.98,0,3.92,0,4.479,0,.018.034.035.07.018a4.145,4.145,0,0,1,2.4-1.068c1.294,0,2.012,1,2.012,2.729,0,.91,0,2.606.018,3.376a.444.444,0,0,0,.123.332,1.776,1.776,0,0,0,.89.262c.018.053,0,.262-.052.28-.227,0-.89-.052-1.662-.052s-1.312.034-1.557.052a.379.379,0,0,1,0-.28,4.045,4.045,0,0,0,.682-.139c.211-.105.3-.175.314-.944a23.74,23.74,0,0,0-.087-3.569,1.521,1.521,0,0,0-1.609-1.225,1.991,1.991,0,0,0-1.334.489.573.573,0,0,0-.209.4c0,1.223,0,3.62.034,4.093.036.541.123.7.455.787a4.268,4.268,0,0,0,.577.1.274.274,0,0,1,0,.262c-.209,0-.751-.034-1.749-.034-.769,0-1.207.052-1.521.052-.018-.034-.036-.227.018-.28a3.438,3.438,0,0,0,.577-.1c.28-.088.35-.3.368-.823.034-.419.034-2.554.034-2.992,0-4.5-.016-5.948-.087-6.56-.034-.245-.087-.366-.35-.436-.157-.035-.366-.053-.664-.087A.435.435,0,0,1,676.285,327.149Z" transform="translate(-667.363 -326.59)" fill="#5e2568"/>
          <path id="Path_61" data-name="Path 61" d="M762.731,362.435a1.631,1.631,0,0,0-1.38-.664,1.186,1.186,0,0,0-.63.157,2.886,2.886,0,0,0-.7,1.26c-.052.052-.332-.175-.332-.316a2.263,2.263,0,0,1,.314-.839,4.873,4.873,0,0,1,2.224-1,1.794,1.794,0,0,1,1.592.875,3.384,3.384,0,0,1,.368,1.715c0,.927-.053,2.239-.053,2.886,0,.314.123.769.63.769a1.531,1.531,0,0,0,.593-.087,1.126,1.126,0,0,1-.07.35,1.888,1.888,0,0,1-1.364.629.812.812,0,0,1-.823-.42,1.973,1.973,0,0,1-.123-.455.047.047,0,0,0-.07-.034,5.147,5.147,0,0,1-1.942.909,1.259,1.259,0,0,1-.889-.384,2.133,2.133,0,0,1-.578-1.5,3.2,3.2,0,0,1,.193-.839c.473-.28,2.642-.858,3.236-1.173a.311.311,0,0,0,.105-.157c.018-.21,0-.437,0-.682A1.8,1.8,0,0,0,762.731,362.435Zm.229,2.187a9.966,9.966,0,0,0-2.135.841,1.388,1.388,0,0,0-.123.541,1.193,1.193,0,0,0,1.208,1.278,1.961,1.961,0,0,0,.909-.262.458.458,0,0,0,.157-.368c.018-.543.035-1.7.035-1.994C763.011,364.64,762.981,364.6,762.959,364.622Z" transform="translate(-738.257 -355.928)" fill="#5e2568"/>
          <path id="Path_62" data-name="Path 62" d="M825.294,360.493a6.835,6.835,0,0,0,2.117-.875c.034-.018.122.087.105.122-.018.175-.036.8-.036,1.173,0,.018.052.018.07.018a4.973,4.973,0,0,1,2.467-1.1,2.24,2.24,0,0,1,1.662.769,3.457,3.457,0,0,1,.769,2.2,3.814,3.814,0,0,1-1.469,3.113,4.871,4.871,0,0,1-2.765,1.05,3.105,3.105,0,0,1-.7-.122.118.118,0,0,0-.053.087c0,1.767.018,2.658.053,3.306.016.507.139.612.541.682.228.036.491.053.857.087.035.053.018.28-.034.3h-.8c-1.469.018-2.362.175-2.939.209-.035-.034-.053-.262,0-.3.209-.053.507-.123.7-.193.3-.123.384-.332.4-.77.036-.7.036-2.224.036-4.584,0-2.676.018-3.569-.036-4.151-.018-.262-.052-.455-.209-.56a1.871,1.871,0,0,0-.771-.209A.3.3,0,0,1,825.294,360.493Zm2.379.716a.491.491,0,0,0-.21.368c-.034.368-.034,2.974,0,3.41a1.1,1.1,0,0,0,.445,1,2.092,2.092,0,0,0,1.242.332,2,2,0,0,0,1.276-.491,3.024,3.024,0,0,0,.787-2.326,3.352,3.352,0,0,0-.63-2.117,1.887,1.887,0,0,0-1.483-.7A2.252,2.252,0,0,0,827.673,361.209Z" transform="translate(-794.136 -354.72)" fill="#5e2568"/>
          <path id="Path_63" data-name="Path 63" d="M909.688,350.525c-.368,0-1.05-.052-1.61-.052-.718,0-1.334.052-1.631.052a.381.381,0,0,1,0-.28,1.938,1.938,0,0,0,.682-.139c.211-.087.3-.227.314-.718.035-.437.035-1.837.035-2.8,0-.682,0-1.294-.018-1.591a.5.5,0,0,0-.106-.35,1.247,1.247,0,0,0-.7-.334.715.715,0,0,1,0-.262,6.94,6.94,0,0,0,2.083-.525c-.018.473-.036,1.89-.036,2.956,0,.946,0,2.187.018,3.027,0,.368.122.525.368.612a2.8,2.8,0,0,0,.646.121C909.74,350.3,909.74,350.507,909.688,350.525Zm-1.312-8.765a1.221,1.221,0,0,1-.666.052.676.676,0,0,1-.366-.63.668.668,0,0,1,.088-.419,1.1,1.1,0,0,1,.7-.262.769.769,0,0,1,.471.157.627.627,0,0,1,.148.4A.816.816,0,0,1,908.376,341.76Z" transform="translate(-863.398 -338.437)" fill="#5e2568"/>
          <path id="Path_64" data-name="Path 64" d="M958.573,367.49c.245-.087.314-.368.332-.7.052-.612.034-1.819.034-2.835,0-.875-.016-1.5-.034-1.631-.036-.211-.148-.332-.823-.525-.018-.036,0-.227.053-.245a6.123,6.123,0,0,0,2.046-.666.08.08,0,0,1,.053.071c-.036.35-.053.741-.071,1.038,0,.052.035.087.071.07a4.233,4.233,0,0,1,2.414-1.162,1.749,1.749,0,0,1,1.557.89,3.68,3.68,0,0,1,.42,1.994c0,.91,0,2.52.018,3.218,0,.211.054.35.227.4a2.269,2.269,0,0,0,.753.191c.018.053,0,.246-.054.28-.245,0-.646-.052-1.521-.052-.84,0-1.348.034-1.714.052a.383.383,0,0,1,0-.28,4.425,4.425,0,0,0,.664-.1.513.513,0,0,0,.368-.543,36.908,36.908,0,0,0-.036-3.692,2.015,2.015,0,0,0-.507-1.119,1.4,1.4,0,0,0-1.068-.385,2.076,2.076,0,0,0-1.417.578c-.122.122-.175.262-.175.63,0,1.312,0,3.008.035,3.777.018.507.106.63.315.7a3.1,3.1,0,0,0,.741.157.77.77,0,0,1-.018.28c-.3,0-.787-.052-1.68-.052-1.014,0-1.312.052-1.591.052a.381.381,0,0,1,0-.28,2.085,2.085,0,0,0,.607-.113Z" transform="translate(-907.28 -355.805)" fill="#5e2568"/>
          <path id="Path_65" data-name="Path 65" d="M1043.077,361.364a3.323,3.323,0,0,0,1.014.175c.682,0,.839-.105,1.068-.332.018-.018.121.034.121.088a1.94,1.94,0,0,1-.419.857.829.829,0,0,1-.559.139c-.148,0-.157,0-.445-.018-.018,0-.035.053-.018.088a3.059,3.059,0,0,1,.21,1.155,2.57,2.57,0,0,1-1,2.224,3.492,3.492,0,0,1-1.906.734,1.055,1.055,0,0,1-.245.018c-.175.035-.525.211-.525.489,0,.35.384.525.629.56a28.214,28.214,0,0,1,2.852.35,1.725,1.725,0,0,1,1.276,1.732,3.49,3.49,0,0,1-2.063,2.9,3.921,3.921,0,0,1-1.907.473,3.088,3.088,0,0,1-1.908-.578,2.036,2.036,0,0,1-.875-1.644,1.367,1.367,0,0,1,.123-.612,15.388,15.388,0,0,1,1.731-1.451c.018,0,0-.053-.018-.053a1.509,1.509,0,0,1-1.171-1.186,1.116,1.116,0,0,1,.034-.211c.246-.139.98-.559,1.225-.752.036-.035.018-.087-.016-.087a2.485,2.485,0,0,1-1.61-2.554,2.624,2.624,0,0,1,.962-2.046,3.878,3.878,0,0,1,2.047-.753A3.7,3.7,0,0,1,1043.077,361.364Zm1.068,9.061a1.334,1.334,0,0,0-.91-1.334,6.767,6.767,0,0,0-2.135-.332,1.155,1.155,0,0,0-.629.175,1.8,1.8,0,0,0-1,1.469,1.644,1.644,0,0,0,.631,1.294,2.667,2.667,0,0,0,1.8.56C1043.584,372.262,1044.144,371.387,1044.144,370.425Zm-4.27-6.98c0,1.294.593,2.52,1.767,2.52a1.121,1.121,0,0,0,.8-.314,2.355,2.355,0,0,0,.473-1.68c0-1.085-.445-2.431-1.8-2.431C1040.3,361.538,1039.874,362.36,1039.874,363.445Z" transform="translate(-975.795 -355.958)" fill="#5e2568"/>
          <path id="Path_66" data-name="Path 66" d="M1156.633,338.327c.3-.105.368-.316.368-.666.018-.927.018-2.9.036-4.892,0-.034-.036-.139-.07-.139l-.859-.036a.853.853,0,0,1,.123-.35,2.481,2.481,0,0,0,.751-.245.149.149,0,0,0,.071-.105c0-2.169.444-3.558,1.958-4.636a3.218,3.218,0,0,1,1.557-.629,1.456,1.456,0,0,1,1.312.629v.141a3.535,3.535,0,0,1-.577.839.134.134,0,0,1-.139.018,2.473,2.473,0,0,0-1.541-.821,1.054,1.054,0,0,0-.734.3c-.578.56-.63,2.076-.648,3.558,0,.105,0,.491.018.593,0,.016.034.1.07.1q1.391-.025,1.679-.052a4.728,4.728,0,0,0-.148.717c-.35,0-1.277-.036-1.556-.018-.018,0-.07.123-.07.139.018,1.821,0,4,.035,4.864.016.42.175.612.507.682a4.157,4.157,0,0,0,.752.122.519.519,0,0,1-.034.28c-.473,0-1.067-.052-1.855-.052-.419,0-1.26.052-1.644.052-.036-.018-.036-.227,0-.28A5.742,5.742,0,0,0,1156.633,338.327Z" transform="translate(-1075.951 -326.624)" fill="#5e2568"/>
          <path id="Path_67" data-name="Path 67" d="M1210.981,361.79a10.469,10.469,0,0,0,2.292-.28,22.8,22.8,0,0,0-.088,3.272,10.532,10.532,0,0,0,.088,1.855,1.329,1.329,0,0,0,1.433,1.066,2.054,2.054,0,0,0,1.366-.507.711.711,0,0,0,.209-.489c.036-.332.018-3.079-.018-3.972a.5.5,0,0,0-.332-.507,8.11,8.11,0,0,0-1.1-.157.318.318,0,0,1,.036-.28,15.791,15.791,0,0,0,2.71-.262,16.738,16.738,0,0,0-.07,1.855l.018,3.463c0,.741.123.857.489.857a5.214,5.214,0,0,0,.542-.034c0,.034.018.262-.034.3-.63.175-1.733.543-2.135.7-.052,0-.105-.052-.105-.139-.018-.211,0-.7,0-1a.069.069,0,0,0-.038-.055.07.07,0,0,0-.067,0,3.62,3.62,0,0,1-2.256,1.1c-1.645,0-1.976-1.137-1.976-2.326,0-.823.018-2.642-.018-3.429-.018-.314-.034-.525-.245-.612a3.077,3.077,0,0,0-.752-.139A.468.468,0,0,1,1210.981,361.79Z" transform="translate(-1122.759 -356.333)" fill="#5e2568"/>
          <path id="Path_68" data-name="Path 68" d="M1293.659,349.966c-.034,0-.088.07-.088.105,0,1-.016,2.9,0,3.674a3.554,3.554,0,0,0,.123,1.05.917.917,0,0,0,.927.612,1.574,1.574,0,0,0,.963-.28.943.943,0,0,1-.034.3,2.025,2.025,0,0,1-1.61.771,1.4,1.4,0,0,1-1.364-.741,4.414,4.414,0,0,1-.229-1.994c0-.928.018-2.66.018-3.359a.117.117,0,0,0-.07-.122c-.139-.036-.63-.053-.875-.07a3.183,3.183,0,0,1,.14-.421,5.825,5.825,0,0,0,.753-.139.155.155,0,0,0,.052-.105v-1.376a3.807,3.807,0,0,0,1.1-.875.434.434,0,0,1,.209.036,14.165,14.165,0,0,0-.105,2.187c0,.034.054.1.088.1a18.777,18.777,0,0,0,1.89-.07,4.9,4.9,0,0,0-.148.741C1294.867,349.984,1294.2,349.966,1293.659,349.966Z" transform="translate(-1191.319 -343.966)" fill="#5e2568"/>
          <path id="Path_69" data-name="Path 69" d="M1347.621,361.79a10.462,10.462,0,0,0,2.292-.28,22.95,22.95,0,0,0-.087,3.272,10.576,10.576,0,0,0,.087,1.855,1.33,1.33,0,0,0,1.434,1.066,2.054,2.054,0,0,0,1.365-.507.705.705,0,0,0,.209-.489c.036-.332.018-3.079-.016-3.972a.507.507,0,0,0-.333-.507,8.122,8.122,0,0,0-1.1-.157.318.318,0,0,1,.036-.28,15.8,15.8,0,0,0,2.71-.262,16.679,16.679,0,0,0-.07,1.855l.018,3.463c0,.741.123.857.491.857a5.189,5.189,0,0,0,.541-.034c0,.034.018.262-.034.3-.63.175-1.732.543-2.135.7-.052,0-.105-.052-.105-.139-.016-.211,0-.7,0-1a.069.069,0,0,0-.037-.055.068.068,0,0,0-.066,0,3.626,3.626,0,0,1-2.258,1.1c-1.644,0-1.976-1.137-1.976-2.326,0-.823.018-2.642-.018-3.429-.018-.314-.034-.525-.245-.612a3.078,3.078,0,0,0-.751-.139A.468.468,0,0,1,1347.621,361.79Z" transform="translate(-1239.141 -356.333)" fill="#5e2568"/>
          <path id="Path_70" data-name="Path 70" d="M1433.189,361.3a.638.638,0,0,1,0,.262,3.31,3.31,0,0,1-.525.944,1.116,1.116,0,0,1-.139.053,1.482,1.482,0,0,0-1.016-.473c-.366,0-.646.314-.89.718a1.8,1.8,0,0,0-.158.7c0,1,.018,3.044.053,3.394s.105.507.332.593a4.335,4.335,0,0,0,.911.139.319.319,0,0,1-.035.28c-.245,0-1.1-.052-1.767-.052-.472,0-1.382.034-1.678.052a.378.378,0,0,1,0-.28,3.229,3.229,0,0,0,.646-.122c.157-.07.263-.175.28-.491.052-.3.07-1.8.07-3.113a14.675,14.675,0,0,0-.035-1.469c-.016-.175-.07-.473-.857-.664,0-.053.018-.21.053-.228a6.054,6.054,0,0,0,1.977-.63c.018,0,.07.036.07.053-.018.314-.018,1.119-.018,1.451,0,.018.053.036.071.018a6.263,6.263,0,0,1,1.037-1.137,1.445,1.445,0,0,1,.89-.368A.848.848,0,0,1,1433.189,361.3Z" transform="translate(-1307.864 -355.822)" fill="#5e2568"/>
          <path id="Path_71" data-name="Path 71" d="M1495.851,366.579a.736.736,0,0,1-.036.3,3.9,3.9,0,0,1-2.729,1.364,2.693,2.693,0,0,1-2.046-.839,3.912,3.912,0,0,1-.91-2.668,3.433,3.433,0,0,1,1.5-3.061,3.985,3.985,0,0,1,1.779-.56c1.631,0,2.169,1.54,2.31,2.372.017.052.052.123.209.139.018.053-.017.211-.07.228a26.307,26.307,0,0,1-4.461.4c-.069,0-.1.105-.1.193a3.4,3.4,0,0,0,.646,1.927,2.347,2.347,0,0,0,1.927.89,2.547,2.547,0,0,0,1.907-.741C1495.8,366.523,1495.851,366.541,1495.851,366.579Zm-4.5-2.87c0,.053.035.105.051.105a22.923,22.923,0,0,0,2.956-.122.182.182,0,0,0,.105-.141c-.105-.89-.593-1.994-1.609-1.994-.787,0-1.435.749-1.5,2.148Z" transform="translate(-1360.571 -355.992)" fill="#5e2568"/>
          <path id="Path_72" data-name="Path 72" d="M1565.322,362.912c-.018.052-.244.052-.28.018-.087-.787-.245-1.186-.63-1.365a1.665,1.665,0,0,0-.769-.175,1.032,1.032,0,0,0-1.084,1.067c0,.593.191.98,1.47,1.631,1.417.716,1.731,1.241,1.731,2.046a2.276,2.276,0,0,1-2.537,2.064,4.918,4.918,0,0,1-1.732-.332,10.991,10.991,0,0,1-.211-1.819c.018-.052.211-.105.28-.07a2.179,2.179,0,0,0,1.067,1.68,1.69,1.69,0,0,0,.788.191,1.1,1.1,0,0,0,1.206-1.066c0-.646-.314-1-1.26-1.523-1.469-.77-1.853-1.364-1.853-2.239,0-1.05.821-1.96,2.372-1.96a5.788,5.788,0,0,1,1,.087,5.939,5.939,0,0,0,.63.07A10.054,10.054,0,0,0,1565.322,362.912Z" transform="translate(-1421.172 -355.95)" fill="#5e2568"/>
        </g>
      </g>
    </g>
  </g>
</svg>
