<svg xmlns="http://www.w3.org/2000/svg" width="21.128" height="20.395" viewBox="0 0 21.128 20.395">
  <g id="search_icon" data-name="search icon" transform="translate(-1449 -2828)">
    <g id="Ellipse_3" data-name="Ellipse 3" transform="translate(1449 2828)" fill="none" stroke="#d5c195" stroke-width="2">
      <circle cx="8.101" cy="8.101" r="8.101" stroke="none"/>
      <circle cx="8.101" cy="8.101" r="7.101" fill="none"/>
    </g>
    <path id="Path_532" data-name="Path 532" d="M1193.224,4731.152l5.155,4.814" transform="translate(270.336 -1888.985)" fill="none" stroke="#d5c195" stroke-linecap="round" stroke-width="2"/>
  </g>
</svg>
