<svg xmlns="http://www.w3.org/2000/svg" xmlns:xlink="http://www.w3.org/1999/xlink" width="43" height="43" viewBox="0 0 43 43">
  <defs>
    <filter id="Ellipse_29" x="0" y="0" width="43" height="43" filterUnits="userSpaceOnUse">
      <feOffset dy="3" input="SourceAlpha"/>
      <feGaussianBlur stdDeviation="3" result="blur"/>
      <feFlood flood-opacity="0.161"/>
      <feComposite operator="in" in2="blur"/>
      <feComposite in="SourceGraphic"/>
    </filter>
  </defs>
  <g id="Group_1884" data-name="Group 1884" transform="translate(-542 -2236)">
    <g transform="matrix(1, 0, 0, 1, 542, 2236)" filter="url(#Ellipse_29)">
      <circle id="Ellipse_29-2" data-name="Ellipse 29" cx="12.5" cy="12.5" r="12.5" transform="translate(9 6)" fill="#fff"/>
    </g>
    <path id="Path_25930" data-name="Path 25930" d="M-14526.937,1522.756l3.336,3.68,7.938-7" transform="translate(15084.438 732.064)" fill="none" stroke="#5e2568" stroke-linecap="round" stroke-width="2"/>
  </g>
</svg>
