<svg xmlns="http://www.w3.org/2000/svg" xmlns:xlink="http://www.w3.org/1999/xlink" width="46" height="36" viewBox="0 0 46 36">
  <defs>
    <clipPath id="clip-down-annotation">
      <rect width="46" height="36"/>
    </clipPath>
  </defs>
  <g id="down-annotation" clip-path="url(#clip-down-annotation)">
    <g id="Group_2004" data-name="Group 2004" transform="translate(11047.762 3531.711)">
      <path id="Path_26070" data-name="Path 26070" d="M1760.864,925.773l1.067,1.566q-1.85,7.114-5.333,16.532t-7.255,17.529h-8.671q4.977-20.27,7.25-35.627Z" transform="translate(-12788.434 -4457.297)" fill="#5e2568"/>
      <path id="Path_26071" data-name="Path 26071" d="M1766.821,925.773l1.068,1.566q-1.85,7.114-5.333,16.532T1755.3,961.4h-8.671q4.977-20.27,7.251-35.627Z" transform="translate(-12769.648 -4457.297)" fill="#5e2568"/>
    </g>
  </g>
</svg>
